#==============================================================================
#
# コピーモーションデータ
# Author : HAMADA
#
#==============================================================================
SCRIPT			# この行は絶対消さないこと！

#------------------------------------------------------------------------------
# コピーの数
#------------------------------------------------------------------------------
NUM_COPY = 5

#------------------------------------------------------------------------------
# プレイヤー情報
#------------------------------------------------------------------------------
PLAYERSET
	COPY_NUMBER = 0
	MOTION_FILENAME = data/system/Fox.txt
END_PLAYERSET

PLAYERSET
	COPY_NUMBER = 1
	MOTION_FILENAME =data/system/sword.txt
END_PLAYERSET

PLAYERSET
	COPY_NUMBER = 2
	MOTION_FILENAME = data/system/flare.txt
END_PLAYERSET

PLAYERSET
	COPY_NUMBER = 3
	MOTION_FILENAME = data/system/Laser.txt
END_PLAYERSET

PLAYERSET
	COPY_NUMBER = 4
	MOTION_FILENAME = data/system/Cutter.txt
END_PLAYERSET


END_SCRIPT		# この行は絶対消さないこと！