xof 0302txt 0064
template Header {
 <3D82AB43-62DA-11cf-AB39-0020AF71E433>
 WORD major;
 WORD minor;
 DWORD flags;
}

template Vector {
 <3D82AB5E-62DA-11cf-AB39-0020AF71E433>
 FLOAT x;
 FLOAT y;
 FLOAT z;
}

template Coords2d {
 <F6F23F44-7686-11cf-8F52-0040333594A3>
 FLOAT u;
 FLOAT v;
}

template Matrix4x4 {
 <F6F23F45-7686-11cf-8F52-0040333594A3>
 array FLOAT matrix[16];
}

template ColorRGBA {
 <35FF44E0-6C7C-11cf-8F52-0040333594A3>
 FLOAT red;
 FLOAT green;
 FLOAT blue;
 FLOAT alpha;
}

template ColorRGB {
 <D3E16E81-7835-11cf-8F52-0040333594A3>
 FLOAT red;
 FLOAT green;
 FLOAT blue;
}

template IndexedColor {
 <1630B820-7842-11cf-8F52-0040333594A3>
 DWORD index;
 ColorRGBA indexColor;
}

template Boolean {
 <4885AE61-78E8-11cf-8F52-0040333594A3>
 WORD truefalse;
}

template Boolean2d {
 <4885AE63-78E8-11cf-8F52-0040333594A3>
 Boolean u;
 Boolean v;
}

template MaterialWrap {
 <4885AE60-78E8-11cf-8F52-0040333594A3>
 Boolean u;
 Boolean v;
}

template TextureFilename {
 <A42790E1-7810-11cf-8F52-0040333594A3>
 STRING filename;
}

template Material {
 <3D82AB4D-62DA-11cf-AB39-0020AF71E433>
 ColorRGBA faceColor;
 FLOAT power;
 ColorRGB specularColor;
 ColorRGB emissiveColor;
 [...]
}

template MeshFace {
 <3D82AB5F-62DA-11cf-AB39-0020AF71E433>
 DWORD nFaceVertexIndices;
 array DWORD faceVertexIndices[nFaceVertexIndices];
}

template MeshFaceWraps {
 <4885AE62-78E8-11cf-8F52-0040333594A3>
 DWORD nFaceWrapValues;
 Boolean2d faceWrapValues;
}

template MeshTextureCoords {
 <F6F23F40-7686-11cf-8F52-0040333594A3>
 DWORD nTextureCoords;
 array Coords2d textureCoords[nTextureCoords];
}

template MeshMaterialList {
 <F6F23F42-7686-11cf-8F52-0040333594A3>
 DWORD nMaterials;
 DWORD nFaceIndexes;
 array DWORD faceIndexes[nFaceIndexes];
 [Material]
}

template MeshNormals {
 <F6F23F43-7686-11cf-8F52-0040333594A3>
 DWORD nNormals;
 array Vector normals[nNormals];
 DWORD nFaceNormals;
 array MeshFace faceNormals[nFaceNormals];
}

template MeshVertexColors {
 <1630B821-7842-11cf-8F52-0040333594A3>
 DWORD nVertexColors;
 array IndexedColor vertexColors[nVertexColors];
}

template Mesh {
 <3D82AB44-62DA-11cf-AB39-0020AF71E433>
 DWORD nVertices;
 array Vector vertices[nVertices];
 DWORD nFaces;
 array MeshFace faces[nFaces];
 [...]
}

Header{
1;
0;
1;
}

Mesh {
 152;
 0.09930;10.13778;-11.54791;,
 7.88513;10.96775;-7.55779;,
 7.25195;5.82829;-7.56701;,
 0.09930;7.19162;-11.67563;,
 -7.28260;5.82829;-7.56701;,
 -7.39272;10.96775;-7.55779;,
 -0.11539;5.93517;33.31850;,
 -5.76399;4.67282;31.02889;,
 -3.70330;2.15227;31.02889;,
 -0.13809;-0.36024;31.02889;,
 3.67264;2.15227;31.02889;,
 5.73333;4.67282;31.02889;,
 -5.18913;2.60910;-7.18597;,
 -7.28260;5.82829;-7.56701;,
 0.09930;7.19162;-11.67563;,
 -0.13575;1.04956;-8.85661;,
 -0.16223;-0.76033;-5.11137;,
 -6.46275;0.88627;-4.09215;,
 -5.18913;2.60910;-7.18597;,
 -6.46275;0.88627;-4.09215;,
 -10.01533;6.82362;-1.78220;,
 -9.22184;8.20943;-4.95906;,
 -7.39272;10.96775;-7.55779;,
 -7.28260;5.82829;-7.56701;,
 7.25195;5.82829;-7.56701;,
 5.15848;2.60910;-7.18597;,
 6.43209;0.88627;-4.09215;,
 5.15848;2.60910;-7.18597;,
 7.25195;5.82829;-7.56701;,
 7.88513;10.96775;-7.55779;,
 9.24416;7.94782;-4.95906;,
 9.98467;6.82362;-1.78220;,
 6.43209;0.88627;-4.09215;,
 -7.03326;16.55858;-4.74022;,
 -7.28260;17.28187;-2.07810;,
 -0.16223;18.85574;-1.30010;,
 -0.16223;18.85667;-3.63496;,
 -0.16223;18.33017;-5.89181;,
 -4.79527;15.89460;-6.20880;,
 7.25195;17.28187;-2.07810;,
 7.00260;16.55858;-4.42129;,
 4.76462;15.89460;-6.20880;,
 7.25195;15.99433;25.89223;,
 -0.16223;17.32974;25.89223;,
 -0.11539;11.97378;31.02889;,
 5.05943;10.39121;31.02889;,
 -7.28260;15.99433;25.89223;,
 -5.09008;10.39121;31.02889;,
 9.98466;6.31555;25.73248;,
 5.73333;4.67282;31.02889;,
 3.67264;2.15227;31.02889;,
 7.11641;-0.83374;25.76199;,
 7.11641;-0.83374;25.76199;,
 -0.13809;-0.36024;31.02889;,
 -0.16223;-2.51381;25.76206;,
 -10.01531;6.31555;25.73248;,
 -7.14706;-0.83374;25.76199;,
 -3.70330;2.15227;31.02889;,
 -5.76399;4.67282;31.02889;,
 -7.14706;-0.83374;25.76199;,
 7.25195;17.40480;1.31389;,
 -0.16223;19.55229;1.31389;,
 -7.28260;17.40480;1.31389;,
 9.98466;6.82362;1.03749;,
 7.15267;0.98994;0.48155;,
 -10.01531;6.82362;1.03749;,
 -7.01570;0.61540;0.48155;,
 -8.90051;13.63315;-4.81896;,
 -10.04864;13.67362;-1.97163;,
 -7.28260;17.28187;-2.07810;,
 -7.03326;16.55858;-4.74022;,
 -4.79527;15.89460;-6.20880;,
 -5.98803;14.52304;-6.69418;,
 -10.01533;14.16131;1.21444;,
 -7.28260;17.40480;1.31389;,
 -5.98803;14.52304;-6.69418;,
 -4.79527;15.89460;-6.20880;,
 -0.16223;18.33017;-5.89181;,
 -0.06813;12.02933;-9.96173;,
 4.76462;15.89460;-6.20880;,
 6.14558;14.52304;-6.69418;,
 -10.01533;13.36257;25.83475;,
 -5.70693;6.88333;31.02889;,
 -7.28260;15.99433;25.89223;,
 6.14558;14.52304;-6.69418;,
 4.76462;15.89460;-6.20880;,
 7.00260;16.55858;-4.42129;,
 8.88892;13.53902;-4.81896;,
 -5.70693;6.88333;31.02889;,
 -0.11539;8.14568;33.31850;,
 -0.11539;11.97378;31.02889;,
 -5.09008;10.39121;31.02889;,
 7.25195;17.28187;-2.07810;,
 10.01799;13.67362;-1.97163;,
 5.67627;6.88333;31.02889;,
 5.05943;10.39121;31.02889;,
 7.25195;17.40480;1.31389;,
 9.98467;14.16131;1.21444;,
 5.67627;6.88333;31.02889;,
 9.98467;13.36257;25.83475;,
 7.25195;15.99433;25.89223;,
 -10.01533;13.96538;7.25370;,
 -11.06427;6.69899;7.09506;,
 -7.28260;17.38480;7.34286;,
 -8.80939;0.81730;7.14085;,
 -7.28260;17.38480;7.34286;,
 -0.16223;20.23574;7.34286;,
 -8.80939;0.81730;7.14085;,
 -7.01570;0.61540;0.48155;,
 -0.16223;-0.76033;-5.11137;,
 -0.16223;-0.11180;1.31488;,
 7.25195;17.38480;7.34286;,
 7.15267;0.98994;0.48155;,
 8.78092;1.19184;7.14085;,
 7.25195;17.38480;7.34286;,
 9.98467;13.96538;7.25370;,
 8.78092;1.19184;7.14085;,
 11.03362;6.69899;7.09506;,
 -10.01533;13.59206;18.76082;,
 -11.06427;6.46153;18.63709;,
 -7.28260;17.34669;18.83036;,
 -8.07881;0.10876;18.67280;,
 -7.28260;17.34669;18.83036;,
 -0.16223;19.98525;18.83036;,
 7.25195;17.34669;18.83036;,
 7.25195;17.34669;18.83036;,
 9.98467;13.59206;18.76082;,
 8.21579;0.48330;18.67280;,
 11.03362;6.46153;18.63709;,
 -7.28260;17.36727;12.62696;,
 -10.01533;13.79366;12.54683;,
 -7.28260;17.36727;12.62696;,
 -0.16223;20.87951;12.62696;,
 -11.74575;6.58976;12.40425;,
 7.25195;17.36727;12.62696;,
 -8.91743;0.75109;12.44540;,
 7.25195;17.36727;12.62696;,
 9.98467;13.79366;12.54683;,
 -8.91743;0.75109;12.44540;,
 -0.16223;-0.16408;18.27155;,
 -0.16223;-2.51381;25.76206;,
 -8.07881;0.10876;18.67280;,
 11.71510;6.58976;12.40425;,
 8.88896;1.12563;12.44540;,
 8.21579;0.48330;18.67280;,
 8.88896;1.12563;12.44540;,
 7.15267;0.98994;0.48155;,
 -0.16223;-0.76033;-5.11137;,
 -7.01570;0.61540;0.48155;,
 -8.07881;0.10876;18.67280;,
 -0.16223;-2.51381;25.76206;,
 8.21579;0.48330;18.67280;;
 
 92;
 4;0,1,2,3;,
 4;0,3,4,5;,
 4;6,7,8,9;,
 4;6,9,10,11;,
 4;12,13,14,15;,
 4;12,15,16,17;,
 4;18,19,20,21;,
 4;18,21,22,23;,
 4;15,14,24,25;,
 4;15,25,26,16;,
 4;27,28,29,30;,
 4;27,30,31,32;,
 4;33,34,35,36;,
 4;33,36,37,38;,
 4;36,35,39,40;,
 4;36,40,41,37;,
 4;42,43,44,45;,
 4;43,46,47,44;,
 4;48,49,50,51;,
 4;52,50,53,54;,
 4;55,56,57,58;,
 4;54,53,57,59;,
 4;60,39,35,61;,
 4;61,35,34,62;,
 4;63,64,32,31;,
 4;65,20,19,66;,
 4;67,21,20,68;,
 4;67,68,69,70;,
 4;67,70,71,72;,
 4;67,72,22,21;,
 4;68,20,65,73;,
 4;68,73,74,69;,
 4;75,76,77,78;,
 4;75,78,0,5;,
 4;78,77,79,80;,
 4;78,80,1,0;,
 4;81,55,58,82;,
 4;81,82,47,83;,
 4;84,85,86,87;,
 4;84,87,30,29;,
 4;88,7,6,89;,
 4;88,89,90,91;,
 4;87,86,92,93;,
 4;87,93,31,30;,
 4;89,6,11,94;,
 4;89,94,95,90;,
 4;93,92,96,97;,
 4;93,97,63,31;,
 4;98,49,48,99;,
 4;98,99,100,45;,
 4;101,73,65,102;,
 4;101,103,74,73;,
 4;102,65,66,104;,
 4;105,106,61,62;,
 4;107,108,109,110;,
 4;106,111,60,61;,
 4;110,109,112,113;,
 4;114,115,97,96;,
 4;116,64,63,117;,
 4;115,117,63,97;,
 4;118,119,55,81;,
 4;118,81,83,120;,
 4;119,121,56,55;,
 4;122,46,43,123;,
 4;123,43,42,124;,
 4;125,100,99,126;,
 4;127,128,48,51;,
 4;126,99,48,128;,
 4;129,103,101,130;,
 4;129,130,118,120;,
 4;131,122,123,132;,
 4;131,132,106,105;,
 4;130,101,102,133;,
 4;130,133,119,118;,
 4;132,123,124,134;,
 4;132,134,111,106;,
 4;133,102,104,135;,
 4;133,135,121,119;,
 4;136,125,126,137;,
 4;136,137,115,114;,
 4;138,107,110,139;,
 4;138,139,140,141;,
 4;137,126,128,142;,
 4;137,142,117,115;,
 4;139,110,113,143;,
 4;139,143,144,140;,
 4;142,128,127,145;,
 4;142,145,116,117;,
 3;146,147,26;,
 3;147,148,17;,
 3;149,150,59;,
 3;150,151,52;;
 
 MeshMaterialList {
  5;
  92;
  0,
  0,
  0,
  0,
  0,
  0,
  0,
  0,
  0,
  0,
  0,
  0,
  0,
  0,
  0,
  0,
  0,
  0,
  0,
  0,
  0,
  0,
  0,
  0,
  0,
  0,
  0,
  0,
  0,
  0,
  0,
  0,
  0,
  0,
  0,
  0,
  0,
  0,
  0,
  0,
  0,
  0,
  0,
  0,
  0,
  0,
  0,
  0,
  0,
  0,
  0,
  0,
  0,
  0,
  0,
  0,
  0,
  0,
  0,
  0,
  0,
  0,
  0,
  0,
  0,
  0,
  0,
  0,
  0,
  0,
  0,
  0,
  0,
  0,
  0,
  0,
  0,
  0,
  0,
  0,
  0,
  0,
  0,
  0,
  0,
  0,
  0,
  0,
  0,
  0,
  0,
  0;;
  Material {
   0.702400;0.380000;0.181600;1.000000;;
   5.000000;
   0.000000;0.000000;0.000000;;
   0.000000;0.000000;0.000000;;
  }
  Material {
   0.367200;0.160000;0.000000;1.000000;;
   5.000000;
   0.000000;0.000000;0.000000;;
   0.000000;0.000000;0.000000;;
  }
  Material {
   0.800000;0.800000;0.800000;1.000000;;
   5.000000;
   0.000000;0.000000;0.000000;;
   0.000000;0.000000;0.000000;;
  }
  Material {
   0.800000;0.680800;0.796800;1.000000;;
   5.000000;
   0.000000;0.000000;0.000000;;
   0.000000;0.000000;0.000000;;
  }
  Material {
   0.179200;0.106400;0.106400;1.000000;;
   5.000000;
   0.000000;0.000000;0.000000;;
   0.000000;0.000000;0.000000;;
  }
 }
 MeshNormals {
  96;
  -0.348273;0.638515;-0.686298;,
  -0.623228;-0.233371;-0.746408;,
  0.356048;0.669871;-0.651539;,
  0.617169;-0.259906;-0.742665;,
  0.355464;0.435360;0.827108;,
  0.468380;-0.535300;0.702904;,
  -0.360357;0.434544;0.825417;,
  -0.476780;-0.531473;0.700155;,
  -0.662512;0.115660;-0.740068;,
  0.679170;0.118232;-0.724396;,
  -0.558844;-0.180228;0.809451;,
  0.553959;-0.180066;0.812838;,
  -0.002827;0.747952;-0.663747;,
  -0.005316;0.279190;-0.960221;,
  -0.003975;0.499089;0.866542;,
  0.001301;-0.211279;-0.977425;,
  -0.005818;-0.154532;0.987971;,
  -0.007748;-0.625266;0.780373;,
  -0.546780;0.821831;-0.160080;,
  -0.954753;-0.206511;-0.214011;,
  -0.003963;0.988734;-0.149630;,
  -0.637170;-0.710712;-0.298167;,
  0.539118;0.824248;-0.173112;,
  0.001400;-0.985015;-0.172461;,
  0.955370;-0.211097;-0.206656;,
  0.631478;-0.725193;-0.274464;,
  -0.653000;-0.493051;-0.574885;,
  -0.004434;-0.668282;-0.743895;,
  -0.881077;-0.104162;-0.461360;,
  0.643002;-0.512721;-0.568916;,
  -0.486498;0.764942;-0.422118;,
  0.894495;-0.109490;-0.433464;,
  -0.000561;0.957257;-0.289239;,
  0.483918;0.776949;-0.402709;,
  0.488728;0.711750;0.504537;,
  -0.004072;0.846078;0.533043;,
  0.905758;-0.193064;0.377263;,
  -0.492398;0.709700;0.503856;,
  0.620529;-0.729785;0.286982;,
  -0.905896;-0.192952;0.376991;,
  0.002548;-0.998732;0.050282;,
  -0.623555;-0.722759;0.297991;,
  0.553175;0.830758;-0.061956;,
  -0.005462;0.994865;-0.101062;,
  0.975959;-0.200960;-0.084372;,
  -0.557727;0.827730;-0.061674;,
  0.613671;-0.787171;-0.061397;,
  -0.976394;-0.197215;-0.088091;,
  -0.611876;-0.786367;-0.085060;,
  -0.780415;0.344725;-0.521648;,
  -0.933231;0.318386;-0.166467;,
  -0.452948;0.438524;-0.776232;,
  -0.935882;0.350872;-0.031837;,
  -0.010281;0.525352;-0.850823;,
  -0.861450;0.287447;0.418662;,
  0.471198;0.479853;-0.740077;,
  -0.528708;0.159992;0.833589;,
  0.794897;0.370517;-0.480475;,
  -0.005510;0.161642;0.986834;,
  0.931336;0.320870;-0.172208;,
  0.523994;0.159932;0.836572;,
  0.935882;0.350872;-0.031836;,
  0.861450;0.287447;0.418662;,
  -0.919048;0.392946;-0.030743;,
  -0.985210;-0.134017;-0.106771;,
  -0.594783;0.803612;-0.021006;,
  -0.911005;-0.389554;-0.135340;,
  -0.006774;0.998414;-0.055888;,
  0.020085;-0.999597;0.020045;,
  0.589313;0.807626;-0.021219;,
  0.600042;-0.797469;-0.063190;,
  0.919048;0.392946;-0.030743;,
  0.984210;-0.143250;-0.103973;,
  -0.917712;0.393392;0.055197;,
  -0.985715;-0.147064;0.082080;,
  -0.576301;0.810353;0.105853;,
  -0.751588;-0.658915;0.030773;,
  -0.006029;0.984750;0.173870;,
  0.571343;0.813790;0.106364;,
  0.747621;-0.664060;0.009350;,
  0.917712;0.393392;0.055197;,
  0.985415;-0.150666;0.079099;,
  -0.617844;0.786248;0.009031;,
  -0.912565;0.408892;0.005731;,
  -0.007305;0.999948;0.007105;,
  -0.993029;-0.117840;0.002674;,
  0.612097;0.790731;0.009071;,
  -0.910279;-0.413967;0.004927;,
  0.912565;0.408892;0.005731;,
  0.019745;-0.994336;-0.104435;,
  0.991858;-0.127346;-0.000597;,
  0.580991;-0.811703;-0.059895;,
  -0.106634;-0.994076;0.021035;,
  -0.073129;-0.991836;-0.104472;,
  -0.043836;-0.978979;-0.199193;,
  0.084906;-0.976731;-0.196946;;
  92;
  4;13,9,3,15;,
  4;13,15,1,8;,
  4;16,10,7,17;,
  4;16,17,5,11;,
  4;26,1,15,27;,
  4;26,27,23,21;,
  4;26,21,19,28;,
  4;26,28,8,1;,
  4;27,15,3,29;,
  4;27,29,25,23;,
  4;29,3,9,31;,
  4;29,31,24,25;,
  4;30,18,20,32;,
  4;30,32,12,0;,
  4;32,20,22,33;,
  4;32,33,2,12;,
  4;34,35,14,4;,
  4;35,37,6,14;,
  4;36,11,5,38;,
  4;38,5,17,40;,
  4;39,41,7,10;,
  4;40,17,7,41;,
  4;42,22,20,43;,
  4;43,20,18,45;,
  4;44,46,25,24;,
  4;47,19,21,48;,
  4;49,28,19,50;,
  4;49,50,18,30;,
  4;49,30,0,51;,
  4;49,51,8,28;,
  4;50,19,47,52;,
  4;50,52,45,18;,
  4;51,0,12,53;,
  4;51,53,13,8;,
  4;53,12,2,55;,
  4;53,55,9,13;,
  4;54,39,10,56;,
  4;54,56,6,37;,
  4;55,2,33,57;,
  4;55,57,31,9;,
  4;56,10,16,58;,
  4;56,58,14,6;,
  4;57,33,22,59;,
  4;57,59,24,31;,
  4;58,16,11,60;,
  4;58,60,4,14;,
  4;59,22,42,61;,
  4;59,61,44,24;,
  4;60,11,36,62;,
  4;60,62,34,4;,
  4;63,52,47,64;,
  4;63,65,45,52;,
  4;64,47,48,66;,
  4;65,67,43,45;,
  4;92,48,23,68;,
  4;67,69,42,43;,
  4;68,23,46,70;,
  4;69,71,61,42;,
  4;70,46,44,72;,
  4;71,72,44,61;,
  4;73,74,39,54;,
  4;73,54,37,75;,
  4;74,76,41,39;,
  4;75,37,35,77;,
  4;77,35,34,78;,
  4;78,34,62,80;,
  4;79,81,36,38;,
  4;80,62,36,81;,
  4;82,65,63,83;,
  4;82,83,73,75;,
  4;82,75,77,84;,
  4;82,84,67,65;,
  4;83,63,64,85;,
  4;83,85,74,73;,
  4;84,77,78,86;,
  4;84,86,69,67;,
  4;85,64,66,87;,
  4;85,87,76,74;,
  4;86,78,80,88;,
  4;86,88,71,69;,
  4;93,92,68,89;,
  4;93,89,40,94;,
  4;88,80,81,90;,
  4;88,90,72,71;,
  4;89,68,70,91;,
  4;89,91,95,40;,
  4;90,81,79,91;,
  4;90,91,70,72;,
  3;46,23,25;,
  3;23,48,21;,
  3;76,40,41;,
  3;40,79,38;;
 }
 MeshTextureCoords {
  152;
  0.492650;0.519300;,
  1.000000;0.519300;,
  1.000000;1.000000;,
  0.492650;1.000000;,
  0.000000;1.000000;,
  0.000000;0.519300;,
  0.507350;0.519300;,
  1.000000;0.519300;,
  1.000000;1.000000;,
  0.507350;1.000000;,
  0.000000;1.000000;,
  0.000000;0.519300;,
  0.000000;0.060000;,
  0.000000;0.000000;,
  0.492650;0.000000;,
  0.492650;0.060000;,
  0.492650;0.066760;,
  0.000000;0.066760;,
  0.940000;1.000000;,
  0.933240;1.000000;,
  0.933240;0.519300;,
  0.940000;0.519300;,
  1.000000;0.519300;,
  1.000000;1.000000;,
  1.000000;0.000000;,
  1.000000;0.060000;,
  1.000000;0.066760;,
  0.060000;1.000000;,
  0.000000;1.000000;,
  0.000000;0.519300;,
  0.060000;0.519300;,
  0.066760;0.519300;,
  0.066760;1.000000;,
  0.000000;0.940000;,
  0.000000;0.933240;,
  0.492650;0.933240;,
  0.492650;0.940000;,
  0.492650;1.000000;,
  0.000000;1.000000;,
  1.000000;0.933240;,
  1.000000;0.940000;,
  1.000000;1.000000;,
  1.000000;0.337910;,
  0.492650;0.337910;,
  0.492650;0.000000;,
  1.000000;0.000000;,
  0.000000;0.337910;,
  0.000000;0.000000;,
  0.662090;0.519300;,
  1.000000;0.519300;,
  1.000000;1.000000;,
  0.662090;1.000000;,
  1.000000;0.662090;,
  0.492650;1.000000;,
  0.492650;0.662090;,
  0.337910;0.519300;,
  0.337910;1.000000;,
  0.000000;1.000000;,
  0.000000;0.519300;,
  0.000000;0.662090;,
  1.000000;0.584660;,
  0.492650;0.584660;,
  0.000000;0.584660;,
  0.415340;0.519300;,
  0.415340;1.000000;,
  0.584660;0.519300;,
  0.584660;1.000000;,
  0.940000;0.186850;,
  0.933240;0.186850;,
  0.933240;0.000000;,
  0.940000;0.000000;,
  1.000000;0.000000;,
  1.000000;0.186850;,
  0.584660;0.186850;,
  0.584660;0.000000;,
  0.000000;0.186850;,
  0.000000;0.000000;,
  0.492650;0.000000;,
  0.492650;0.186850;,
  1.000000;0.000000;,
  1.000000;0.186850;,
  0.337910;0.186850;,
  0.000000;0.186850;,
  0.337910;0.000000;,
  0.000000;0.186850;,
  0.000000;0.000000;,
  0.060000;0.000000;,
  0.060000;0.186850;,
  1.000000;0.186850;,
  0.507350;0.186850;,
  0.507350;0.000000;,
  1.000000;0.000000;,
  0.066760;0.000000;,
  0.066760;0.186850;,
  0.000000;0.186850;,
  0.000000;0.000000;,
  0.415340;0.000000;,
  0.415340;0.186850;,
  1.000000;0.186850;,
  0.662090;0.186850;,
  0.662090;0.000000;,
  0.524130;0.186850;,
  0.524130;0.519300;,
  0.524130;0.000000;,
  0.524130;1.000000;,
  0.000000;0.524130;,
  0.492650;0.524130;,
  0.000000;0.475870;,
  0.000000;0.415340;,
  0.492650;0.415340;,
  0.492650;0.475870;,
  1.000000;0.524130;,
  1.000000;0.415340;,
  1.000000;0.475870;,
  0.475870;0.000000;,
  0.475870;0.186850;,
  0.475870;1.000000;,
  0.475870;0.519300;,
  0.408800;0.186850;,
  0.408800;0.519300;,
  0.408800;0.000000;,
  0.408800;1.000000;,
  0.000000;0.408800;,
  0.492650;0.408800;,
  1.000000;0.408800;,
  0.591200;0.000000;,
  0.591200;0.186850;,
  0.591200;1.000000;,
  0.591200;0.519300;,
  0.471080;0.000000;,
  0.471080;0.186850;,
  0.000000;0.471080;,
  0.492650;0.471080;,
  0.471080;0.519300;,
  1.000000;0.471080;,
  0.471080;1.000000;,
  0.528920;0.000000;,
  0.528920;0.186850;,
  0.000000;0.528920;,
  0.492650;0.528920;,
  0.492650;0.591200;,
  0.000000;0.591200;,
  0.528920;0.519300;,
  1.000000;0.528920;,
  1.000000;0.591200;,
  0.528920;1.000000;,
  0.746330;0.415340;,
  0.492650;0.241050;,
  0.246330;0.241050;,
  0.246330;0.591200;,
  0.492650;0.626650;,
  0.746330;0.626650;;
 }
}
