xof 0302txt 0064
template Header {
 <3D82AB43-62DA-11cf-AB39-0020AF71E433>
 WORD major;
 WORD minor;
 DWORD flags;
}

template Vector {
 <3D82AB5E-62DA-11cf-AB39-0020AF71E433>
 FLOAT x;
 FLOAT y;
 FLOAT z;
}

template Coords2d {
 <F6F23F44-7686-11cf-8F52-0040333594A3>
 FLOAT u;
 FLOAT v;
}

template Matrix4x4 {
 <F6F23F45-7686-11cf-8F52-0040333594A3>
 array FLOAT matrix[16];
}

template ColorRGBA {
 <35FF44E0-6C7C-11cf-8F52-0040333594A3>
 FLOAT red;
 FLOAT green;
 FLOAT blue;
 FLOAT alpha;
}

template ColorRGB {
 <D3E16E81-7835-11cf-8F52-0040333594A3>
 FLOAT red;
 FLOAT green;
 FLOAT blue;
}

template IndexedColor {
 <1630B820-7842-11cf-8F52-0040333594A3>
 DWORD index;
 ColorRGBA indexColor;
}

template Boolean {
 <4885AE61-78E8-11cf-8F52-0040333594A3>
 WORD truefalse;
}

template Boolean2d {
 <4885AE63-78E8-11cf-8F52-0040333594A3>
 Boolean u;
 Boolean v;
}

template MaterialWrap {
 <4885AE60-78E8-11cf-8F52-0040333594A3>
 Boolean u;
 Boolean v;
}

template TextureFilename {
 <A42790E1-7810-11cf-8F52-0040333594A3>
 STRING filename;
}

template Material {
 <3D82AB4D-62DA-11cf-AB39-0020AF71E433>
 ColorRGBA faceColor;
 FLOAT power;
 ColorRGB specularColor;
 ColorRGB emissiveColor;
 [...]
}

template MeshFace {
 <3D82AB5F-62DA-11cf-AB39-0020AF71E433>
 DWORD nFaceVertexIndices;
 array DWORD faceVertexIndices[nFaceVertexIndices];
}

template MeshFaceWraps {
 <4885AE62-78E8-11cf-8F52-0040333594A3>
 DWORD nFaceWrapValues;
 Boolean2d faceWrapValues;
}

template MeshTextureCoords {
 <F6F23F40-7686-11cf-8F52-0040333594A3>
 DWORD nTextureCoords;
 array Coords2d textureCoords[nTextureCoords];
}

template MeshMaterialList {
 <F6F23F42-7686-11cf-8F52-0040333594A3>
 DWORD nMaterials;
 DWORD nFaceIndexes;
 array DWORD faceIndexes[nFaceIndexes];
 [Material]
}

template MeshNormals {
 <F6F23F43-7686-11cf-8F52-0040333594A3>
 DWORD nNormals;
 array Vector normals[nNormals];
 DWORD nFaceNormals;
 array MeshFace faceNormals[nFaceNormals];
}

template MeshVertexColors {
 <1630B821-7842-11cf-8F52-0040333594A3>
 DWORD nVertexColors;
 array IndexedColor vertexColors[nVertexColors];
}

template Mesh {
 <3D82AB44-62DA-11cf-AB39-0020AF71E433>
 DWORD nVertices;
 array Vector vertices[nVertices];
 DWORD nFaces;
 array MeshFace faces[nFaces];
 [...]
}

Header{
1;
0;
1;
}

Mesh {
 104;
 -0.63860;18.92781;12.47141;,
 6.60690;15.81520;13.37317;,
 6.49793;11.68017;8.34984;,
 -0.62731;13.95482;6.42998;,
 -6.41487;11.68017;8.34984;,
 -6.52384;15.81520;13.37317;,
 -5.14555;17.51617;17.72564;,
 -0.49582;21.46356;18.32201;,
 5.22862;17.51617;17.72564;,
 5.12456;7.24579;4.98121;,
 -0.48504;8.62175;2.37867;,
 -5.04150;7.24579;4.98121;,
 -3.12276;20.15538;24.29300;,
 -0.23103;21.45983;23.25539;,
 3.20583;20.15538;24.29300;,
 3.58525;4.10222;3.50194;,
 -0.32557;3.53663;1.63721;,
 -3.50218;4.10222;3.50194;,
 0.22018;20.99718;30.14740;,
 -3.12276;20.15538;24.29300;,
 2.49155;2.24677;2.92618;,
 -0.21227;1.30512;0.94477;,
 -2.40849;2.24677;2.92618;,
 -0.21227;-3.30687;4.61329;,
 2.49155;-1.58803;5.97652;,
 3.58525;-1.44444;7.91395;,
 -0.32557;-3.13415;6.94338;,
 -3.50218;-1.44444;7.91395;,
 -2.40849;-1.58803;5.97652;,
 5.12456;-0.71024;11.30972;,
 -0.48504;-2.91851;11.55821;,
 -5.04150;-0.71024;11.30972;,
 6.49793;1.57453;16.38823;,
 -0.62731;-0.17072;17.66593;,
 -6.41487;1.57453;16.38823;,
 6.60690;5.53897;21.54726;,
 -0.63860;4.59718;23.87051;,
 -6.52384;5.53897;21.54726;,
 5.22862;9.39725;24.18371;,
 -0.49582;9.60406;27.50226;,
 -5.14555;9.39725;24.18371;,
 3.20583;15.20257;28.23263;,
 -0.23103;14.53519;28.76347;,
 -3.12276;15.20257;28.23263;,
 -0.23103;14.53519;28.76347;,
 0.22018;20.99718;30.14740;,
 -3.12276;15.20257;28.23263;,
 3.20583;15.20257;28.23263;,
 7.59300;2.53817;7.21778;,
 5.12456;7.24579;4.98121;,
 6.49793;11.68017;8.34984;,
 9.24470;6.57997;12.29620;,
 6.49793;1.57453;16.38823;,
 5.12456;-0.71024;11.30972;,
 3.58525;-1.44444;7.91395;,
 4.30343;0.20479;4.28748;,
 3.58525;4.10222;3.50194;,
 6.60690;15.81520;13.37317;,
 9.37576;11.45052;18.41910;,
 6.60690;5.53897;21.54726;,
 2.49155;-1.58803;5.97652;,
 3.64251;-0.99842;2.77708;,
 2.49155;2.24677;2.92618;,
 5.22862;17.51617;17.72564;,
 7.71814;15.27052;23.22432;,
 5.22862;9.39725;24.18371;,
 3.64251;-0.99842;2.77708;,
 2.49155;-1.58803;5.97652;,
 -0.21227;-3.30687;4.61329;,
 -0.21227;-0.99842;2.77708;,
 -0.21227;1.30512;0.94477;,
 2.49155;2.24677;2.92618;,
 3.20583;20.15538;24.29300;,
 4.64412;17.68160;26.26072;,
 3.20583;15.20257;28.23263;,
 -2.40849;-1.58803;5.97652;,
 -2.90502;-0.99842;2.77708;,
 -2.40849;2.24677;2.92618;,
 0.22018;20.99718;30.14740;,
 3.20583;20.15538;24.29300;,
 -2.90502;-0.99842;2.77708;,
 -2.40849;-1.58803;5.97652;,
 -3.50218;-1.44444;7.91395;,
 -4.22037;0.20479;4.28748;,
 -3.50218;4.10222;3.50194;,
 -2.40849;2.24677;2.92618;,
 -5.04150;-0.71024;11.30972;,
 -6.85672;2.53817;7.21778;,
 -5.04150;7.24579;4.98121;,
 -6.41487;1.57453;16.38823;,
 -8.50842;6.54965;12.25809;,
 -6.41487;11.68017;8.34984;,
 -6.52384;5.53897;21.54726;,
 -8.63947;11.42022;18.38102;,
 -6.52384;15.81520;13.37317;,
 -5.14555;9.39725;24.18371;,
 -6.98186;15.22798;23.17085;,
 -5.14555;17.51617;17.72564;,
 -3.12276;15.20257;28.23263;,
 -3.90783;17.68160;26.26072;,
 -3.12276;20.15538;24.29300;,
 -3.90783;17.68160;26.26072;,
 0.22018;20.99718;30.14740;,
 -3.12276;15.20257;28.23263;;
 
 60;
 4;0,1,2,3;,
 4;0,3,4,5;,
 4;0,5,6,7;,
 4;0,7,8,1;,
 4;3,2,9,10;,
 4;3,10,11,4;,
 4;7,6,12,13;,
 4;7,13,14,8;,
 4;10,9,15,16;,
 4;10,16,17,11;,
 3;13,18,14;,
 3;13,19,18;,
 4;16,15,20,21;,
 4;16,21,22,17;,
 4;23,24,25,26;,
 4;23,26,27,28;,
 4;26,25,29,30;,
 4;26,30,31,27;,
 4;30,29,32,33;,
 4;30,33,34,31;,
 4;33,32,35,36;,
 4;33,36,37,34;,
 4;36,35,38,39;,
 4;36,39,40,37;,
 4;39,38,41,42;,
 4;39,42,43,40;,
 3;44,45,46;,
 3;44,47,45;,
 4;48,49,50,51;,
 4;48,51,52,53;,
 4;48,53,54,55;,
 4;48,55,56,49;,
 4;51,50,57,58;,
 4;51,58,59,52;,
 4;55,54,60,61;,
 4;55,61,62,56;,
 4;58,57,63,64;,
 4;58,64,65,59;,
 4;66,67,68,69;,
 4;66,69,70,71;,
 4;64,63,72,73;,
 4;64,73,74,65;,
 4;69,68,75,76;,
 4;69,76,77,70;,
 3;73,78,74;,
 3;73,79,78;,
 4;80,81,82,83;,
 4;80,83,84,85;,
 4;83,82,86,87;,
 4;83,87,88,84;,
 4;87,86,89,90;,
 4;87,90,91,88;,
 4;90,89,92,93;,
 4;90,93,94,91;,
 4;93,92,95,96;,
 4;93,96,97,94;,
 4;96,95,98,99;,
 4;96,99,100,97;,
 3;101,102,19;,
 3;101,103,102;;
 
 MeshMaterialList {
  5;
  60;
  0,
  0,
  0,
  0,
  0,
  0,
  2,
  2,
  0,
  0,
  2,
  2,
  0,
  0,
  0,
  0,
  0,
  0,
  0,
  0,
  0,
  0,
  0,
  0,
  2,
  2,
  2,
  2,
  0,
  0,
  0,
  0,
  0,
  0,
  0,
  0,
  0,
  0,
  0,
  0,
  2,
  2,
  0,
  0,
  2,
  2,
  0,
  0,
  0,
  0,
  0,
  0,
  0,
  0,
  0,
  0,
  2,
  2,
  2,
  2;;
  Material {
   0.702400;0.380000;0.181600;1.000000;;
   5.000000;
   0.000000;0.000000;0.000000;;
   0.000000;0.000000;0.000000;;
  }
  Material {
   0.367200;0.160000;0.000000;1.000000;;
   5.000000;
   0.000000;0.000000;0.000000;;
   0.000000;0.000000;0.000000;;
  }
  Material {
   0.800000;0.800000;0.800000;1.000000;;
   5.000000;
   0.000000;0.000000;0.000000;;
   0.000000;0.000000;0.000000;;
  }
  Material {
   0.800000;0.680800;0.796800;1.000000;;
   5.000000;
   0.000000;0.000000;0.000000;;
   0.000000;0.000000;0.000000;;
  }
  Material {
   0.179200;0.106400;0.106400;1.000000;;
   5.000000;
   0.000000;0.000000;0.000000;;
   0.000000;0.000000;0.000000;;
  }
 }
 MeshNormals {
  65;
  -0.537035;-0.035257;-0.842823;,
  -0.537390;-0.812930;-0.224402;,
  0.513616;0.009238;-0.857971;,
  0.514050;-0.837699;-0.184427;,
  0.259790;0.953331;0.153849;,
  0.570910;0.110011;-0.813609;,
  -0.612806;0.058048;-0.788099;,
  0.560031;-0.826608;-0.055544;,
  -0.601723;-0.792286;-0.101055;,
  -0.690056;0.178772;-0.701330;,
  -0.656006;-0.753289;0.047028;,
  0.627523;0.220788;-0.746638;,
  0.594498;-0.800501;0.075968;,
  0.695864;0.453742;-0.556679;,
  -0.754350;0.401836;-0.519119;,
  0.657954;-0.673878;0.336132;,
  -0.714018;-0.633020;0.299106;,
  0.694615;0.644854;-0.318862;,
  -0.755198;0.594703;-0.275688;,
  0.657282;-0.479875;0.581120;,
  -0.715862;-0.432793;0.547935;,
  -0.706032;0.707486;-0.031336;,
  -0.657287;-0.220198;0.720755;,
  0.642394;0.761547;-0.085886;,
  0.594682;-0.278764;0.754085;,
  -0.643378;0.750526;0.150915;,
  -0.578608;-0.054735;0.813767;,
  0.584767;0.806819;0.084204;,
  0.519966;-0.122220;0.845398;,
  -0.043643;0.873082;-0.485616;,
  -0.040748;0.671537;-0.739850;,
  -0.535579;0.831644;-0.146710;,
  -0.042976;0.371408;-0.927475;,
  -0.029848;0.999552;-0.002305;,
  -0.048676;0.154030;-0.986867;,
  0.154469;-0.118088;-0.980915;,
  0.154480;-0.929038;-0.336191;,
  0.144741;-0.989459;0.004625;,
  -0.037783;-0.977544;0.207319;,
  -0.032838;-0.868433;0.494719;,
  -0.036225;-0.673790;0.738035;,
  -0.036485;-0.432401;0.900943;,
  -0.023527;-0.271113;0.962260;,
  0.876705;-0.299046;-0.376776;,
  0.987357;-0.098305;-0.124350;,
  0.784932;-0.385219;-0.485271;,
  0.986915;0.100775;0.125868;,
  0.516055;-0.677298;-0.524362;,
  0.891907;0.281911;0.353592;,
  -0.029263;-0.621966;-0.782497;,
  0.795251;0.378682;0.473472;,
  -0.583611;-0.505108;-0.635818;,
  -0.770160;-0.526049;-0.360730;,
  -0.897088;-0.274701;-0.346081;,
  -0.988217;-0.094975;-0.120031;,
  -0.987845;0.097106;0.121382;,
  -0.900033;0.271649;0.340804;,
  -0.812586;0.363366;0.455707;,
  0.461011;0.866921;-0.189517;,
  -0.562879;0.087644;-0.821879;,
  -0.562883;-0.820527;-0.099489;,
  0.251559;-0.099918;0.962671;,
  0.678834;0.119328;-0.724532;,
  -0.626105;0.036300;-0.778893;,
  -0.777649;0.392134;0.491420;;
  60;
  4;29,17,13,30;,
  4;29,30,14,18;,
  4;29,18,21,31;,
  4;29,58,23,17;,
  4;30,13,11,32;,
  4;30,32,9,14;,
  4;31,21,25,33;,
  4;58,33,27,23;,
  4;32,11,5,34;,
  4;32,34,6,9;,
  3;33,4,27;,
  3;33,25,4;,
  4;34,5,2,35;,
  4;34,59,0,6;,
  4;36,3,7,37;,
  4;60,60,8,1;,
  4;37,7,12,38;,
  4;37,38,10,8;,
  4;38,12,15,39;,
  4;38,39,16,10;,
  4;39,15,19,40;,
  4;39,40,20,16;,
  4;40,19,24,41;,
  4;40,41,22,20;,
  4;41,24,28,42;,
  4;41,42,26,22;,
  3;42,61,26;,
  3;42,28,61;,
  4;43,11,13,44;,
  4;43,44,15,12;,
  4;43,12,7,45;,
  4;43,45,5,11;,
  4;44,13,17,46;,
  4;44,46,19,15;,
  4;45,7,3,47;,
  4;45,62,2,5;,
  4;46,17,23,48;,
  4;46,48,24,19;,
  4;47,3,36,49;,
  4;47,49,35,2;,
  4;48,23,27,50;,
  4;48,50,28,24;,
  4;49,36,1,51;,
  4;49,51,0,35;,
  3;50,61,28;,
  3;50,27,4;,
  4;51,1,8,52;,
  4;51,63,6,0;,
  4;52,8,10,53;,
  4;52,53,9,6;,
  4;53,10,16,54;,
  4;53,54,14,9;,
  4;54,16,20,55;,
  4;54,55,18,14;,
  4;55,20,22,56;,
  4;55,56,21,18;,
  4;56,22,26,57;,
  4;56,57,25,21;,
  3;57,64,25;,
  3;57,26,64;;
 }
 MeshTextureCoords {
  104;
  0.456930;0.000880;,
  1.000000;0.000880;,
  1.000000;0.008920;,
  0.456930;0.008920;,
  0.000000;0.008920;,
  0.000000;0.000880;,
  0.000000;0.000110;,
  0.456930;0.000110;,
  1.000000;0.000110;,
  1.000000;0.110180;,
  0.456930;0.110180;,
  0.000000;0.110180;,
  0.000000;0.000010;,
  0.456930;0.000010;,
  1.000000;0.000010;,
  1.000000;0.549640;,
  0.456930;0.549640;,
  0.000000;0.549640;,
  0.500000;0.000000;,
  0.000000;0.000000;,
  1.000000;1.000000;,
  0.456930;1.000000;,
  0.000000;1.000000;,
  0.456930;0.000000;,
  1.000000;0.000000;,
  1.000000;0.450360;,
  0.456930;0.450360;,
  0.000000;0.450360;,
  0.000000;0.000000;,
  1.000000;0.889820;,
  0.456930;0.889820;,
  0.000000;0.889820;,
  1.000000;0.991080;,
  0.456930;0.991080;,
  0.000000;0.991080;,
  1.000000;0.999120;,
  0.456930;0.999120;,
  0.000000;0.999120;,
  1.000000;0.999890;,
  0.456930;0.999890;,
  0.000000;0.999890;,
  1.000000;0.999990;,
  0.456930;0.999990;,
  0.000000;0.999990;,
  0.228470;1.000000;,
  1.000000;1.000000;,
  0.000000;1.000000;,
  0.500000;1.000000;,
  0.889820;0.499470;,
  0.889820;0.000000;,
  0.991080;0.000000;,
  0.991080;0.499470;,
  0.991080;1.000000;,
  0.889820;1.000000;,
  0.450360;1.000000;,
  0.450360;0.499470;,
  0.450360;0.000000;,
  0.999120;0.000000;,
  0.999120;0.499470;,
  0.999120;1.000000;,
  0.000000;1.000000;,
  0.000000;0.499470;,
  0.000000;0.000000;,
  0.999890;0.000000;,
  0.999890;0.499470;,
  0.999890;1.000000;,
  1.000000;0.499470;,
  1.000000;1.000000;,
  0.456930;1.000000;,
  0.456930;0.499470;,
  0.456930;0.000000;,
  1.000000;0.000000;,
  0.999990;0.000000;,
  0.999990;0.499470;,
  0.999990;1.000000;,
  0.000000;1.000000;,
  0.000000;0.499470;,
  0.000000;0.000000;,
  1.000000;0.500000;,
  1.000000;0.000000;,
  1.000000;0.499470;,
  1.000000;1.000000;,
  0.549640;1.000000;,
  0.549640;0.499470;,
  0.549640;0.000000;,
  1.000000;0.000000;,
  0.110180;1.000000;,
  0.110180;0.499470;,
  0.110180;0.000000;,
  0.008920;1.000000;,
  0.008920;0.499470;,
  0.008920;0.000000;,
  0.000880;1.000000;,
  0.000880;0.499470;,
  0.000880;0.000000;,
  0.000110;1.000000;,
  0.000110;0.499470;,
  0.000110;0.000000;,
  0.000010;1.000000;,
  0.000010;0.499470;,
  0.000010;0.000000;,
  0.000000;0.249730;,
  0.000000;1.000000;,
  0.000000;0.500000;;
 }
}
