xof 0302txt 0064
template Header {
 <3D82AB43-62DA-11cf-AB39-0020AF71E433>
 WORD major;
 WORD minor;
 DWORD flags;
}

template Vector {
 <3D82AB5E-62DA-11cf-AB39-0020AF71E433>
 FLOAT x;
 FLOAT y;
 FLOAT z;
}

template Coords2d {
 <F6F23F44-7686-11cf-8F52-0040333594A3>
 FLOAT u;
 FLOAT v;
}

template Matrix4x4 {
 <F6F23F45-7686-11cf-8F52-0040333594A3>
 array FLOAT matrix[16];
}

template ColorRGBA {
 <35FF44E0-6C7C-11cf-8F52-0040333594A3>
 FLOAT red;
 FLOAT green;
 FLOAT blue;
 FLOAT alpha;
}

template ColorRGB {
 <D3E16E81-7835-11cf-8F52-0040333594A3>
 FLOAT red;
 FLOAT green;
 FLOAT blue;
}

template IndexedColor {
 <1630B820-7842-11cf-8F52-0040333594A3>
 DWORD index;
 ColorRGBA indexColor;
}

template Boolean {
 <4885AE61-78E8-11cf-8F52-0040333594A3>
 WORD truefalse;
}

template Boolean2d {
 <4885AE63-78E8-11cf-8F52-0040333594A3>
 Boolean u;
 Boolean v;
}

template MaterialWrap {
 <4885AE60-78E8-11cf-8F52-0040333594A3>
 Boolean u;
 Boolean v;
}

template TextureFilename {
 <A42790E1-7810-11cf-8F52-0040333594A3>
 STRING filename;
}

template Material {
 <3D82AB4D-62DA-11cf-AB39-0020AF71E433>
 ColorRGBA faceColor;
 FLOAT power;
 ColorRGB specularColor;
 ColorRGB emissiveColor;
 [...]
}

template MeshFace {
 <3D82AB5F-62DA-11cf-AB39-0020AF71E433>
 DWORD nFaceVertexIndices;
 array DWORD faceVertexIndices[nFaceVertexIndices];
}

template MeshFaceWraps {
 <4885AE62-78E8-11cf-8F52-0040333594A3>
 DWORD nFaceWrapValues;
 Boolean2d faceWrapValues;
}

template MeshTextureCoords {
 <F6F23F40-7686-11cf-8F52-0040333594A3>
 DWORD nTextureCoords;
 array Coords2d textureCoords[nTextureCoords];
}

template MeshMaterialList {
 <F6F23F42-7686-11cf-8F52-0040333594A3>
 DWORD nMaterials;
 DWORD nFaceIndexes;
 array DWORD faceIndexes[nFaceIndexes];
 [Material]
}

template MeshNormals {
 <F6F23F43-7686-11cf-8F52-0040333594A3>
 DWORD nNormals;
 array Vector normals[nNormals];
 DWORD nFaceNormals;
 array MeshFace faceNormals[nFaceNormals];
}

template MeshVertexColors {
 <1630B821-7842-11cf-8F52-0040333594A3>
 DWORD nVertexColors;
 array IndexedColor vertexColors[nVertexColors];
}

template Mesh {
 <3D82AB44-62DA-11cf-AB39-0020AF71E433>
 DWORD nVertices;
 array Vector vertices[nVertices];
 DWORD nFaces;
 array MeshFace faces[nFaces];
 [...]
}

Header{
1;
0;
1;
}

Mesh {
 711;
 0.67411;17.76584;-5.33794;,
 -1.40098;17.07346;-3.39289;,
 0.72122;17.07346;-2.63927;,
 0.67411;17.76584;-5.33794;,
 -2.30763;17.07346;-5.28590;,
 0.67411;17.76584;-5.33794;,
 -1.46760;17.07346;-7.20939;,
 0.67411;17.76584;-5.33794;,
 0.62701;17.07346;-8.03661;,
 0.67411;17.76584;-5.33794;,
 2.74921;17.07346;-7.28299;,
 0.67411;17.76584;-5.33794;,
 3.65587;17.07346;-5.38998;,
 0.67411;17.76584;-5.33794;,
 2.81583;17.07346;-3.46649;,
 0.67411;17.76584;-5.33794;,
 0.72122;17.07346;-2.63927;,
 -3.16018;15.10173;-1.74397;,
 0.76115;15.10173;-0.35145;,
 -4.83542;15.10173;-5.24177;,
 -3.28327;15.10173;-8.79592;,
 0.58708;15.10173;-10.32443;,
 4.50840;15.10173;-8.93192;,
 6.18366;15.10173;-5.43412;,
 4.63149;15.10173;-1.87997;,
 0.76115;15.10173;-0.35145;,
 -4.33563;12.15082;-0.64218;,
 0.78783;12.15082;1.17721;,
 -6.52444;12.15082;-5.21229;,
 -4.49645;12.15082;-9.85600;,
 0.56039;12.15082;-11.85310;,
 5.68387;12.15082;-10.03370;,
 7.87269;12.15082;-5.46360;,
 5.84468;12.15082;-0.81989;,
 0.78783;12.15082;1.17721;,
 -4.74838;8.66997;-0.25528;,
 0.79721;8.66997;1.71402;,
 -7.11755;8.66997;-5.20194;,
 -4.92247;8.66997;-10.22826;,
 0.55103;8.66997;-12.38990;,
 6.09664;8.66997;-10.42060;,
 8.46580;8.66997;-5.47394;,
 6.27070;8.66997;-0.44762;,
 0.79721;8.66997;1.71402;,
 -4.33563;5.18913;-0.64218;,
 0.78783;5.18913;1.17721;,
 -6.52444;5.18913;-5.21229;,
 -4.49645;5.18913;-9.85600;,
 0.56039;5.18913;-11.85310;,
 5.68387;5.18913;-10.03370;,
 7.87269;5.18913;-5.46360;,
 5.84468;5.18913;-0.81989;,
 0.78783;5.18913;1.17721;,
 -3.16018;2.23821;-1.74397;,
 0.76115;2.23821;-0.35145;,
 -4.83542;2.23821;-5.24177;,
 -3.28327;2.23821;-8.79592;,
 0.58708;2.23821;-10.32443;,
 4.50840;2.23821;-8.93192;,
 6.18366;2.23821;-5.43412;,
 4.63149;2.23821;-1.87997;,
 0.76115;2.23821;-0.35145;,
 -1.40098;0.26648;-3.39289;,
 0.72122;0.26648;-2.63927;,
 -2.30763;0.26648;-5.28590;,
 -1.46760;0.26648;-7.20939;,
 0.62701;0.26648;-8.03661;,
 2.74921;0.26648;-7.28299;,
 3.65587;0.26648;-5.38998;,
 2.81583;0.26648;-3.46649;,
 0.72122;0.26648;-2.63927;,
 0.67411;-0.42590;-5.33794;,
 0.67411;-0.42590;-5.33794;,
 0.67411;-0.42590;-5.33794;,
 0.67411;-0.42590;-5.33794;,
 0.67411;-0.42590;-5.33794;,
 0.67411;-0.42590;-5.33794;,
 0.67411;-0.42590;-5.33794;,
 0.67411;-0.42590;-5.33794;,
 0.67411;10.27682;-5.33794;,
 -0.25857;10.18265;-4.37212;,
 0.69754;10.18265;-3.99549;,
 0.67411;10.27682;-5.33794;,
 -0.66834;10.18265;-5.31451;,
 0.67411;10.27682;-5.33794;,
 -0.29171;10.18265;-6.27062;,
 0.67411;10.27682;-5.33794;,
 0.65068;10.18265;-6.68039;,
 0.67411;10.27682;-5.33794;,
 1.60681;10.18265;-6.30376;,
 0.67411;10.27682;-5.33794;,
 2.01657;10.18265;-5.36137;,
 0.67411;10.27682;-5.33794;,
 1.63994;10.18265;-4.40526;,
 0.67411;10.27682;-5.33794;,
 0.69754;10.18265;-3.99549;,
 -1.04927;9.91447;-3.55332;,
 0.71741;9.91447;-2.85741;,
 -1.80642;9.91447;-5.29464;,
 -1.11050;9.91447;-7.06133;,
 0.63082;9.91447;-7.81848;,
 2.39750;9.91447;-7.12256;,
 3.15465;9.91447;-5.38124;,
 2.45874;9.91447;-3.61455;,
 0.71741;9.91447;-2.85741;,
 -1.57760;9.51311;-3.00623;,
 0.73068;9.51311;-2.09697;,
 -2.56686;9.51311;-5.28137;,
 -1.65760;9.51311;-7.58965;,
 0.61754;9.51311;-8.57891;,
 2.92584;9.51311;-7.66966;,
 3.91509;9.51311;-5.39451;,
 3.00584;9.51311;-3.08623;,
 0.73068;9.51311;-2.09697;,
 -1.76312;9.03968;-2.81411;,
 0.73535;9.03968;-1.82994;,
 -2.83389;9.03968;-5.27671;,
 -1.84972;9.03968;-7.77517;,
 0.61288;9.03968;-8.84594;,
 3.11135;9.03968;-7.86177;,
 4.18212;9.03968;-5.39918;,
 3.19795;9.03968;-2.90071;,
 0.73535;9.03968;-1.82994;,
 -1.57760;8.56625;-3.00623;,
 0.73068;8.56625;-2.09697;,
 -2.56686;8.56625;-5.28137;,
 -1.65760;8.56625;-7.58965;,
 0.61754;8.56625;-8.57891;,
 2.92584;8.56625;-7.66966;,
 3.91509;8.56625;-5.39451;,
 3.00584;8.56625;-3.08623;,
 0.73068;8.56625;-2.09697;,
 -1.04927;8.16489;-3.55332;,
 0.71741;8.16489;-2.85741;,
 -1.80642;8.16489;-5.29464;,
 -1.11050;8.16489;-7.06133;,
 0.63082;8.16489;-7.81848;,
 2.39750;8.16489;-7.12256;,
 3.15465;8.16489;-5.38124;,
 2.45874;8.16489;-3.61455;,
 0.71741;8.16489;-2.85741;,
 -0.25857;7.89671;-4.37212;,
 0.69754;7.89671;-3.99549;,
 -0.66834;7.89671;-5.31451;,
 -0.29171;7.89671;-6.27062;,
 0.65068;7.89671;-6.68039;,
 1.60681;7.89671;-6.30376;,
 2.01657;7.89671;-5.36137;,
 1.63994;7.89671;-4.40526;,
 0.69754;7.89671;-3.99549;,
 0.67411;7.80254;-5.33794;,
 0.67411;7.80254;-5.33794;,
 0.67411;7.80254;-5.33794;,
 0.67411;7.80254;-5.33794;,
 0.67411;7.80254;-5.33794;,
 0.67411;7.80254;-5.33794;,
 0.67411;7.80254;-5.33794;,
 0.67411;7.80254;-5.33794;,
 0.61243;12.61525;-8.87213;,
 -0.74336;12.22702;-7.46816;,
 0.64648;12.22702;-6.92069;,
 0.61243;12.61525;-8.87213;,
 -1.33901;12.22702;-8.83806;,
 0.61243;12.61525;-8.87213;,
 -0.79154;12.22702;-10.22792;,
 0.61243;12.61525;-8.87213;,
 0.57836;12.22702;-10.82357;,
 0.61243;12.61525;-8.87213;,
 1.96822;12.22702;-10.27609;,
 0.61243;12.61525;-8.87213;,
 2.56387;12.22702;-8.90619;,
 0.61243;12.61525;-8.87213;,
 2.01639;12.22702;-7.51634;,
 0.61243;12.61525;-8.87213;,
 0.64648;12.22702;-6.92069;,
 -1.89275;11.12145;-6.27795;,
 0.67537;11.12145;-5.26634;,
 -2.99337;11.12145;-8.80919;,
 -1.98176;11.12145;-11.37730;,
 0.54949;11.12145;-12.47791;,
 3.11760;11.12145;-11.46631;,
 4.21821;11.12145;-8.93507;,
 3.20662;11.12145;-6.36696;,
 0.67537;11.12145;-5.26634;,
 -2.66074;9.46685;-5.48266;,
 0.69466;9.46685;-4.16094;,
 -4.09876;9.46685;-8.78989;,
 -2.77704;9.46685;-12.14530;,
 0.53019;9.46685;-13.58332;,
 3.88558;9.46685;-12.26159;,
 5.32362;9.46685;-8.95435;,
 4.00189;9.46685;-5.59896;,
 0.69466;9.46685;-4.16094;,
 -2.93043;7.51512;-5.20340;,
 0.70143;7.51512;-3.77277;,
 -4.48692;7.51512;-8.78311;,
 -3.05630;7.51512;-12.41497;,
 0.52342;7.51512;-13.97149;,
 4.15529;7.51512;-12.54085;,
 5.71179;7.51512;-8.96114;,
 4.28116;7.51512;-5.32929;,
 0.70143;7.51512;-3.77277;,
 -2.66074;5.56338;-5.48266;,
 0.69466;5.56338;-4.16094;,
 -4.09876;5.56338;-8.78989;,
 -2.77704;5.56338;-12.14530;,
 0.53019;5.56338;-13.58332;,
 3.88558;5.56338;-12.26159;,
 5.32362;5.56338;-8.95435;,
 4.00189;5.56338;-5.59896;,
 0.69466;5.56338;-4.16094;,
 -1.89275;3.90878;-6.27795;,
 0.67537;3.90878;-5.26634;,
 -2.99337;3.90878;-8.80919;,
 -1.98176;3.90878;-11.37730;,
 0.54949;3.90878;-12.47791;,
 3.11760;3.90878;-11.46631;,
 4.21821;3.90878;-8.93507;,
 3.20662;3.90878;-6.36696;,
 0.67537;3.90878;-5.26634;,
 -0.74336;2.80321;-7.46816;,
 0.64648;2.80321;-6.92069;,
 -1.33901;2.80321;-8.83806;,
 -0.79154;2.80321;-10.22792;,
 0.57836;2.80321;-10.82357;,
 1.96822;2.80321;-10.27609;,
 2.56387;2.80321;-8.90619;,
 2.01639;2.80321;-7.51634;,
 0.64648;2.80321;-6.92069;,
 0.61243;2.41498;-8.87213;,
 0.61243;2.41498;-8.87213;,
 0.61243;2.41498;-8.87213;,
 0.61243;2.41498;-8.87213;,
 0.61243;2.41498;-8.87213;,
 0.61243;2.41498;-8.87213;,
 0.61243;2.41498;-8.87213;,
 0.61243;2.41498;-8.87213;,
 3.59737;19.38809;-5.09892;,
 3.03937;19.22831;-4.52110;,
 3.61139;19.22831;-4.29578;,
 3.59737;19.38809;-5.09892;,
 2.79422;19.22831;-5.08491;,
 3.59737;19.38809;-5.09892;,
 3.01954;19.22831;-5.65692;,
 3.59737;19.38809;-5.09892;,
 3.58335;19.22831;-5.90207;,
 3.59737;19.38809;-5.09892;,
 4.15538;19.22831;-5.67675;,
 3.59737;19.38809;-5.09892;,
 4.40052;19.22831;-5.11294;,
 3.59737;19.38809;-5.09892;,
 4.17519;19.22831;-4.54092;,
 3.59737;19.38809;-5.09892;,
 3.61139;19.22831;-4.29578;,
 2.56633;18.77330;-4.03123;,
 3.62327;18.77330;-3.61490;,
 2.11335;18.77330;-5.07302;,
 2.52970;18.77330;-6.12997;,
 3.57147;18.77330;-6.58295;,
 4.62842;18.77330;-6.16661;,
 5.08140;18.77330;-5.12483;,
 4.66506;18.77330;-4.06788;,
 3.62327;18.77330;-3.61490;,
 2.25024;18.09232;-3.70393;,
 3.63122;18.09232;-3.15994;,
 1.65840;18.09232;-5.06508;,
 2.20238;18.09232;-6.44605;,
 3.56353;18.09232;-7.03789;,
 4.94451;18.09232;-6.49391;,
 5.53635;18.09232;-5.13277;,
 4.99236;18.09232;-3.75179;,
 3.63122;18.09232;-3.15994;,
 2.13926;17.28905;-3.58899;,
 3.63400;17.28905;-3.00019;,
 1.49865;17.28905;-5.06229;,
 2.08745;17.28905;-6.55704;,
 3.56074;17.28905;-7.19766;,
 5.05549;17.28905;-6.60885;,
 5.69610;17.28905;-5.13556;,
 5.10730;17.28905;-3.64080;,
 3.63400;17.28905;-3.00019;,
 2.25024;16.48577;-3.70393;,
 3.63122;16.48577;-3.15994;,
 1.65840;16.48577;-5.06508;,
 2.20238;16.48577;-6.44605;,
 3.56353;16.48577;-7.03789;,
 4.94451;16.48577;-6.49391;,
 5.53635;16.48577;-5.13277;,
 4.99236;16.48577;-3.75179;,
 3.63122;16.48577;-3.15994;,
 2.56633;15.80479;-4.03123;,
 3.62327;15.80479;-3.61490;,
 2.11335;15.80479;-5.07302;,
 2.52970;15.80479;-6.12997;,
 3.57147;15.80479;-6.58295;,
 4.62842;15.80479;-6.16661;,
 5.08140;15.80479;-5.12483;,
 4.66506;15.80479;-4.06788;,
 3.62327;15.80479;-3.61490;,
 3.03937;15.34977;-4.52110;,
 3.61139;15.34977;-4.29578;,
 2.79422;15.34977;-5.08491;,
 3.01954;15.34977;-5.65692;,
 3.58335;15.34977;-5.90207;,
 4.15538;15.34977;-5.67675;,
 4.40052;15.34977;-5.11294;,
 4.17519;15.34977;-4.54092;,
 3.61139;15.34977;-4.29578;,
 3.59737;15.19000;-5.09892;,
 3.59737;15.19000;-5.09892;,
 3.59737;15.19000;-5.09892;,
 3.59737;15.19000;-5.09892;,
 3.59737;15.19000;-5.09892;,
 3.59737;15.19000;-5.09892;,
 3.59737;15.19000;-5.09892;,
 3.59737;15.19000;-5.09892;,
 -2.70312;19.38809;-4.98895;,
 -3.26113;19.22831;-4.41113;,
 -2.68911;19.22831;-4.18580;,
 -2.70312;19.38809;-4.98895;,
 -3.50627;19.22831;-4.97493;,
 -2.70312;19.38809;-4.98895;,
 -3.28096;19.22831;-5.54695;,
 -2.70312;19.38809;-4.98895;,
 -2.71714;19.22831;-5.79210;,
 -2.70312;19.38809;-4.98895;,
 -2.14513;19.22831;-5.56677;,
 -2.70312;19.38809;-4.98895;,
 -1.89998;19.22831;-5.00297;,
 -2.70312;19.38809;-4.98895;,
 -2.12530;19.22831;-4.43094;,
 -2.70312;19.38809;-4.98895;,
 -2.68911;19.22831;-4.18580;,
 -3.73418;18.77330;-3.92126;,
 -2.67722;18.77330;-3.50492;,
 -4.18715;18.77330;-4.96305;,
 -3.77081;18.77330;-6.01999;,
 -2.72903;18.77330;-6.47297;,
 -1.67207;18.77330;-6.05662;,
 -1.21911;18.77330;-5.01485;,
 -1.63544;18.77330;-3.95791;,
 -2.67722;18.77330;-3.50492;,
 -4.05026;18.09232;-3.59395;,
 -2.66929;18.09232;-3.04997;,
 -4.64210;18.09232;-4.95510;,
 -4.09812;18.09232;-6.33607;,
 -2.73697;18.09232;-6.92792;,
 -1.35600;18.09232;-6.38394;,
 -0.76416;18.09232;-5.02279;,
 -1.30813;18.09232;-3.64182;,
 -2.66929;18.09232;-3.04997;,
 -4.16125;17.28905;-3.47902;,
 -2.66649;17.28905;-2.89022;,
 -4.80186;17.28905;-4.95232;,
 -4.21306;17.28905;-6.44706;,
 -2.73977;17.28905;-7.08767;,
 -1.24501;17.28905;-6.49887;,
 -0.60440;17.28905;-5.02558;,
 -1.19320;17.28905;-3.53083;,
 -2.66649;17.28905;-2.89022;,
 -4.05026;16.48577;-3.59395;,
 -2.66929;16.48577;-3.04997;,
 -4.64210;16.48577;-4.95510;,
 -4.09812;16.48577;-6.33607;,
 -2.73697;16.48577;-6.92792;,
 -1.35600;16.48577;-6.38394;,
 -0.76416;16.48577;-5.02279;,
 -1.30813;16.48577;-3.64182;,
 -2.66929;16.48577;-3.04997;,
 -3.73418;15.80479;-3.92126;,
 -2.67722;15.80479;-3.50492;,
 -4.18715;15.80479;-4.96305;,
 -3.77081;15.80479;-6.01999;,
 -2.72903;15.80479;-6.47297;,
 -1.67207;15.80479;-6.05662;,
 -1.21911;15.80479;-5.01485;,
 -1.63544;15.80479;-3.95791;,
 -2.67722;15.80479;-3.50492;,
 -3.26113;15.34977;-4.41113;,
 -2.68911;15.34977;-4.18580;,
 -3.50627;15.34977;-4.97493;,
 -3.28096;15.34977;-5.54695;,
 -2.71714;15.34977;-5.79210;,
 -2.14513;15.34977;-5.56677;,
 -1.89998;15.34977;-5.00297;,
 -2.12530;15.34977;-4.43094;,
 -2.68911;15.34977;-4.18580;,
 -2.70312;15.19000;-4.98895;,
 -2.70312;15.19000;-4.98895;,
 -2.70312;15.19000;-4.98895;,
 -2.70312;15.19000;-4.98895;,
 -2.70312;15.19000;-4.98895;,
 -2.70312;15.19000;-4.98895;,
 -2.70312;15.19000;-4.98895;,
 -2.70312;15.19000;-4.98895;,
 0.29452;14.11758;-10.06091;,
 -0.53772;13.95780;-9.47830;,
 0.30854;13.95780;-9.25777;,
 0.29452;14.11758;-10.06091;,
 -0.89649;13.95780;-10.04012;,
 0.29452;14.11758;-10.06091;,
 -0.55755;13.95780;-10.61413;,
 0.29452;14.11758;-10.06091;,
 0.28050;13.95780;-10.86407;,
 0.29452;14.11758;-10.06091;,
 1.12678;13.95780;-10.64353;,
 0.29452;14.11758;-10.06091;,
 1.48553;13.95780;-10.08170;,
 0.29452;14.11758;-10.06091;,
 1.14660;13.95780;-9.50770;,
 0.29452;14.11758;-10.06091;,
 0.30854;13.95780;-9.25777;,
 -1.24328;13.50279;-8.98440;,
 0.32042;13.50279;-8.57690;,
 -1.90617;13.50279;-10.02251;,
 -1.27991;13.50279;-11.08312;,
 0.26862;13.50279;-11.54495;,
 1.83234;13.50279;-11.13745;,
 2.49521;13.50279;-10.09933;,
 1.86897;13.50279;-9.03872;,
 0.32042;13.50279;-8.57690;,
 -1.71472;12.82181;-8.65437;,
 0.32837;12.82181;-8.12195;,
 -2.58082;12.82181;-10.01072;,
 -1.76258;12.82181;-11.39649;,
 0.26067;12.82181;-11.99989;,
 2.30377;12.82181;-11.46747;,
 3.16987;12.82181;-10.11110;,
 2.35163;12.82181;-8.72535;,
 0.32837;12.82181;-8.12195;,
 -1.88027;12.01854;-8.53848;,
 0.33115;12.01854;-7.96218;,
 -2.81773;12.01854;-10.00658;,
 -1.93208;12.01854;-11.50653;,
 0.25789;12.01854;-12.15965;,
 2.46931;12.01854;-11.58336;,
 3.40678;12.01854;-10.11524;,
 2.52111;12.01854;-8.61530;,
 0.33115;12.01854;-7.96218;,
 -1.71472;11.21526;-8.65437;,
 0.32837;11.21526;-8.12195;,
 -2.58082;11.21526;-10.01072;,
 -1.76258;11.21526;-11.39649;,
 0.26067;11.21526;-11.99989;,
 2.30377;11.21526;-11.46747;,
 3.16987;11.21526;-10.11110;,
 2.35163;11.21526;-8.72535;,
 0.32837;11.21526;-8.12195;,
 -1.24328;10.53428;-8.98440;,
 0.32042;10.53428;-8.57690;,
 -1.90617;10.53428;-10.02251;,
 -1.27991;10.53428;-11.08312;,
 0.26862;10.53428;-11.54495;,
 1.83234;10.53428;-11.13745;,
 2.49521;10.53428;-10.09933;,
 1.86897;10.53428;-9.03872;,
 0.32042;10.53428;-8.57690;,
 -0.53772;10.07926;-9.47830;,
 0.30854;10.07926;-9.25777;,
 -0.89649;10.07926;-10.04012;,
 -0.55755;10.07926;-10.61413;,
 0.28050;10.07926;-10.86407;,
 1.12678;10.07926;-10.64353;,
 1.48553;10.07926;-10.08170;,
 1.14660;10.07926;-9.50770;,
 0.30854;10.07926;-9.25777;,
 0.29452;9.91949;-10.06091;,
 0.29452;9.91949;-10.06091;,
 0.29452;9.91949;-10.06091;,
 0.29452;9.91949;-10.06091;,
 0.29452;9.91949;-10.06091;,
 0.29452;9.91949;-10.06091;,
 0.29452;9.91949;-10.06091;,
 0.29452;9.91949;-10.06091;,
 -1.43032;15.77572;-9.54657;,
 -1.72643;15.67821;-9.32227;,
 -1.42492;15.67821;-9.23677;,
 -1.43032;15.77572;-9.54657;,
 -1.85450;15.67821;-9.53916;,
 -1.43032;15.77572;-9.54657;,
 -1.73408;15.67821;-9.76040;,
 -1.43032;15.77572;-9.54657;,
 -1.43574;15.67821;-9.85637;,
 -1.43032;15.77572;-9.54657;,
 -1.13421;15.67821;-9.77087;,
 -1.43032;15.77572;-9.54657;,
 -1.00616;15.67821;-9.55397;,
 -1.43032;15.77572;-9.54657;,
 -1.12657;15.67821;-9.33275;,
 -1.43032;15.77572;-9.54657;,
 -1.42492;15.67821;-9.23677;,
 -1.97746;15.40051;-9.13212;,
 -1.42034;15.40051;-8.97414;,
 -2.21408;15.40051;-9.53288;,
 -1.99160;15.40051;-9.94167;,
 -1.44032;15.40051;-10.11900;,
 -0.88318;15.40051;-9.96102;,
 -0.64656;15.40051;-9.56025;,
 -0.86905;15.40051;-9.15146;,
 -1.42034;15.40051;-8.97414;,
 -2.14519;14.98488;-9.00506;,
 -1.41727;14.98488;-8.79864;,
 -2.45436;14.98488;-9.52870;,
 -2.16366;14.98488;-10.06279;,
 -1.44338;14.98488;-10.29448;,
 -0.71546;14.98488;-10.08806;,
 -0.40629;14.98488;-9.56444;,
 -0.69699;14.98488;-9.03034;,
 -1.41727;14.98488;-8.79864;,
 -2.20409;14.49463;-8.96046;,
 -1.41620;14.49463;-8.73702;,
 -2.53874;14.49463;-9.52722;,
 -2.22408;14.49463;-10.10532;,
 -1.44446;14.49463;-10.35611;,
 -0.65656;14.49463;-10.13268;,
 -0.32191;14.49463;-9.56591;,
 -0.63658;14.49463;-8.98782;,
 -1.41620;14.49463;-8.73702;,
 -2.14519;14.00437;-9.00506;,
 -1.41727;14.00437;-8.79864;,
 -2.45436;14.00437;-9.52870;,
 -2.16366;14.00437;-10.06279;,
 -1.44338;14.00437;-10.29448;,
 -0.71546;14.00437;-10.08806;,
 -0.40629;14.00437;-9.56444;,
 -0.69699;14.00437;-9.03034;,
 -1.41727;14.00437;-8.79864;,
 -1.97746;13.58875;-9.13212;,
 -1.42034;13.58875;-8.97414;,
 -2.21408;13.58875;-9.53288;,
 -1.99160;13.58875;-9.94167;,
 -1.44032;13.58875;-10.11900;,
 -0.88318;13.58875;-9.96102;,
 -0.64656;13.58875;-9.56025;,
 -0.86905;13.58875;-9.15146;,
 -1.42034;13.58875;-8.97414;,
 -1.72643;13.31105;-9.32227;,
 -1.42492;13.31105;-9.23677;,
 -1.85450;13.31105;-9.53916;,
 -1.73408;13.31105;-9.76040;,
 -1.43574;13.31105;-9.85637;,
 -1.13421;13.31105;-9.77087;,
 -1.00616;13.31105;-9.55397;,
 -1.12657;13.31105;-9.33275;,
 -1.42492;13.31105;-9.23677;,
 -1.43032;13.21353;-9.54657;,
 -1.43032;13.21353;-9.54657;,
 -1.43032;13.21353;-9.54657;,
 -1.43032;13.21353;-9.54657;,
 -1.43032;13.21353;-9.54657;,
 -1.43032;13.21353;-9.54657;,
 -1.43032;13.21353;-9.54657;,
 -1.43032;13.21353;-9.54657;,
 1.95875;15.77572;-9.60573;,
 1.66265;15.67821;-9.38143;,
 1.96417;15.67821;-9.29593;,
 1.95875;15.77572;-9.60573;,
 1.53459;15.67821;-9.59832;,
 1.95875;15.77572;-9.60573;,
 1.65500;15.67821;-9.81956;,
 1.95875;15.77572;-9.60573;,
 1.95335;15.67821;-9.91552;,
 1.95875;15.77572;-9.60573;,
 2.25487;15.67821;-9.83002;,
 1.95875;15.77572;-9.60573;,
 2.38292;15.67821;-9.61312;,
 1.95875;15.77572;-9.60573;,
 2.26252;15.67821;-9.39190;,
 1.95875;15.77572;-9.60573;,
 1.96417;15.67821;-9.29593;,
 1.41161;15.40051;-9.19128;,
 1.96875;15.40051;-9.03330;,
 1.17499;15.40051;-9.59204;,
 1.39749;15.40051;-10.00083;,
 1.94877;15.40051;-10.17816;,
 2.50589;15.40051;-10.02018;,
 2.74251;15.40051;-9.61940;,
 2.52003;15.40051;-9.21062;,
 1.96875;15.40051;-9.03330;,
 1.24389;14.98488;-9.06423;,
 1.97181;14.98488;-8.85781;,
 0.93472;14.98488;-9.58785;,
 1.22543;14.98488;-10.12194;,
 1.94570;14.98488;-10.35364;,
 2.67362;14.98488;-10.14722;,
 2.98279;14.98488;-9.62360;,
 2.69209;14.98488;-9.08950;,
 1.97181;14.98488;-8.85781;,
 1.18499;14.49463;-9.01962;,
 1.97289;14.49463;-8.79619;,
 0.85034;14.49463;-9.58638;,
 1.16501;14.49463;-10.16447;,
 1.94463;14.49463;-10.41527;,
 2.73253;14.49463;-10.19183;,
 3.06717;14.49463;-9.62507;,
 2.75251;14.49463;-9.04698;,
 1.97289;14.49463;-8.79619;,
 1.24389;14.00437;-9.06423;,
 1.97181;14.00437;-8.85781;,
 0.93472;14.00437;-9.58785;,
 1.22543;14.00437;-10.12194;,
 1.94570;14.00437;-10.35364;,
 2.67362;14.00437;-10.14722;,
 2.98279;14.00437;-9.62360;,
 2.69209;14.00437;-9.08950;,
 1.97181;14.00437;-8.85781;,
 1.41161;13.58875;-9.19128;,
 1.96875;13.58875;-9.03330;,
 1.17499;13.58875;-9.59204;,
 1.39749;13.58875;-10.00083;,
 1.94877;13.58875;-10.17816;,
 2.50589;13.58875;-10.02018;,
 2.74251;13.58875;-9.61940;,
 2.52003;13.58875;-9.21062;,
 1.96875;13.58875;-9.03330;,
 1.66265;13.31105;-9.38143;,
 1.96417;13.31105;-9.29593;,
 1.53459;13.31105;-9.59832;,
 1.65500;13.31105;-9.81956;,
 1.95335;13.31105;-9.91552;,
 2.25487;13.31105;-9.83002;,
 2.38292;13.31105;-9.61312;,
 2.26252;13.31105;-9.39190;,
 1.96417;13.31105;-9.29593;,
 1.95875;13.21353;-9.60573;,
 1.95875;13.21353;-9.60573;,
 1.95875;13.21353;-9.60573;,
 1.95875;13.21353;-9.60573;,
 1.95875;13.21353;-9.60573;,
 1.95875;13.21353;-9.60573;,
 1.95875;13.21353;-9.60573;,
 1.95875;13.21353;-9.60573;,
 0.22077;13.73542;-11.61415;,
 -0.07534;13.63791;-11.38985;,
 0.22618;13.63791;-11.30435;,
 0.22077;13.73542;-11.61415;,
 -0.20340;13.63791;-11.60674;,
 0.22077;13.73542;-11.61415;,
 -0.08298;13.63791;-11.82796;,
 0.22077;13.73542;-11.61415;,
 0.21537;13.63791;-11.92395;,
 0.22077;13.73542;-11.61415;,
 0.51689;13.63791;-11.83844;,
 0.22077;13.73542;-11.61415;,
 0.64494;13.63791;-11.62155;,
 0.22077;13.73542;-11.61415;,
 0.52453;13.63791;-11.40032;,
 0.22077;13.73542;-11.61415;,
 0.22618;13.63791;-11.30435;,
 -0.32637;13.36021;-11.19970;,
 0.23077;13.36021;-11.04171;,
 -0.56299;13.36021;-11.60047;,
 -0.34050;13.36021;-12.00925;,
 0.21078;13.36021;-12.18658;,
 0.76791;13.36021;-12.02859;,
 1.00453;13.36021;-11.62783;,
 0.78204;13.36021;-11.21905;,
 0.23077;13.36021;-11.04171;,
 -0.49410;12.94458;-11.07265;,
 0.23382;12.94458;-10.86623;,
 -0.80326;12.94458;-11.59627;,
 -0.51256;12.94458;-12.13036;,
 0.20771;12.94458;-12.36206;,
 0.93564;12.94458;-12.15564;,
 1.24481;12.94458;-11.63202;,
 0.95410;12.94458;-11.09793;,
 0.23382;12.94458;-10.86623;,
 -0.55299;12.45433;-11.02803;,
 0.23490;12.45433;-10.80461;,
 -0.88763;12.45433;-11.59480;,
 -0.57298;12.45433;-12.17290;,
 0.20664;12.45433;-12.42368;,
 0.99454;12.45433;-12.20026;,
 1.32918;12.45433;-11.63349;,
 1.01452;12.45433;-11.05539;,
 0.23490;12.45433;-10.80461;,
 -0.49410;11.96407;-11.07265;,
 0.23382;11.96407;-10.86623;,
 -0.80326;11.96407;-11.59627;,
 -0.51256;11.96407;-12.13036;,
 0.20771;11.96407;-12.36206;,
 0.93564;11.96407;-12.15564;,
 1.24481;11.96407;-11.63202;,
 0.95410;11.96407;-11.09793;,
 0.23382;11.96407;-10.86623;,
 -0.32637;11.54845;-11.19970;,
 0.23077;11.54845;-11.04171;,
 -0.56299;11.54845;-11.60047;,
 -0.34050;11.54845;-12.00925;,
 0.21078;11.54845;-12.18658;,
 0.76791;11.54845;-12.02859;,
 1.00453;11.54845;-11.62783;,
 0.78204;11.54845;-11.21905;,
 0.23077;11.54845;-11.04171;,
 -0.07534;11.27075;-11.38985;,
 0.22618;11.27075;-11.30435;,
 -0.20340;11.27075;-11.60674;,
 -0.08298;11.27075;-11.82796;,
 0.21537;11.27075;-11.92395;,
 0.51689;11.27075;-11.83844;,
 0.64494;11.27075;-11.62155;,
 0.52453;11.27075;-11.40032;,
 0.22618;11.27075;-11.30435;,
 0.22077;11.17323;-11.61415;,
 0.22077;11.17323;-11.61415;,
 0.22077;11.17323;-11.61415;,
 0.22077;11.17323;-11.61415;,
 0.22077;11.17323;-11.61415;,
 0.22077;11.17323;-11.61415;,
 0.22077;11.17323;-11.61415;,
 0.22077;11.17323;-11.61415;;
 
 576;
 3;0,1,2;,
 3;3,4,1;,
 3;5,6,4;,
 3;7,8,6;,
 3;9,10,8;,
 3;11,12,10;,
 3;13,14,12;,
 3;15,16,14;,
 4;2,1,17,18;,
 4;1,4,19,17;,
 4;4,6,20,19;,
 4;6,8,21,20;,
 4;8,10,22,21;,
 4;10,12,23,22;,
 4;12,14,24,23;,
 4;14,16,25,24;,
 4;18,17,26,27;,
 4;17,19,28,26;,
 4;19,20,29,28;,
 4;20,21,30,29;,
 4;21,22,31,30;,
 4;22,23,32,31;,
 4;23,24,33,32;,
 4;24,25,34,33;,
 4;27,26,35,36;,
 4;26,28,37,35;,
 4;28,29,38,37;,
 4;29,30,39,38;,
 4;30,31,40,39;,
 4;31,32,41,40;,
 4;32,33,42,41;,
 4;33,34,43,42;,
 4;36,35,44,45;,
 4;35,37,46,44;,
 4;37,38,47,46;,
 4;38,39,48,47;,
 4;39,40,49,48;,
 4;40,41,50,49;,
 4;41,42,51,50;,
 4;42,43,52,51;,
 4;45,44,53,54;,
 4;44,46,55,53;,
 4;46,47,56,55;,
 4;47,48,57,56;,
 4;48,49,58,57;,
 4;49,50,59,58;,
 4;50,51,60,59;,
 4;51,52,61,60;,
 4;54,53,62,63;,
 4;53,55,64,62;,
 4;55,56,65,64;,
 4;56,57,66,65;,
 4;57,58,67,66;,
 4;58,59,68,67;,
 4;59,60,69,68;,
 4;60,61,70,69;,
 3;63,62,71;,
 3;62,64,72;,
 3;64,65,73;,
 3;65,66,74;,
 3;66,67,75;,
 3;67,68,76;,
 3;68,69,77;,
 3;69,70,78;,
 3;79,80,81;,
 3;82,83,80;,
 3;84,85,83;,
 3;86,87,85;,
 3;88,89,87;,
 3;90,91,89;,
 3;92,93,91;,
 3;94,95,93;,
 4;81,80,96,97;,
 4;80,83,98,96;,
 4;83,85,99,98;,
 4;85,87,100,99;,
 4;87,89,101,100;,
 4;89,91,102,101;,
 4;91,93,103,102;,
 4;93,95,104,103;,
 4;97,96,105,106;,
 4;96,98,107,105;,
 4;98,99,108,107;,
 4;99,100,109,108;,
 4;100,101,110,109;,
 4;101,102,111,110;,
 4;102,103,112,111;,
 4;103,104,113,112;,
 4;106,105,114,115;,
 4;105,107,116,114;,
 4;107,108,117,116;,
 4;108,109,118,117;,
 4;109,110,119,118;,
 4;110,111,120,119;,
 4;111,112,121,120;,
 4;112,113,122,121;,
 4;115,114,123,124;,
 4;114,116,125,123;,
 4;116,117,126,125;,
 4;117,118,127,126;,
 4;118,119,128,127;,
 4;119,120,129,128;,
 4;120,121,130,129;,
 4;121,122,131,130;,
 4;124,123,132,133;,
 4;123,125,134,132;,
 4;125,126,135,134;,
 4;126,127,136,135;,
 4;127,128,137,136;,
 4;128,129,138,137;,
 4;129,130,139,138;,
 4;130,131,140,139;,
 4;133,132,141,142;,
 4;132,134,143,141;,
 4;134,135,144,143;,
 4;135,136,145,144;,
 4;136,137,146,145;,
 4;137,138,147,146;,
 4;138,139,148,147;,
 4;139,140,149,148;,
 3;142,141,150;,
 3;141,143,151;,
 3;143,144,152;,
 3;144,145,153;,
 3;145,146,154;,
 3;146,147,155;,
 3;147,148,156;,
 3;148,149,157;,
 3;158,159,160;,
 3;161,162,159;,
 3;163,164,162;,
 3;165,166,164;,
 3;167,168,166;,
 3;169,170,168;,
 3;171,172,170;,
 3;173,174,172;,
 4;160,159,175,176;,
 4;159,162,177,175;,
 4;162,164,178,177;,
 4;164,166,179,178;,
 4;166,168,180,179;,
 4;168,170,181,180;,
 4;170,172,182,181;,
 4;172,174,183,182;,
 4;176,175,184,185;,
 4;175,177,186,184;,
 4;177,178,187,186;,
 4;178,179,188,187;,
 4;179,180,189,188;,
 4;180,181,190,189;,
 4;181,182,191,190;,
 4;182,183,192,191;,
 4;185,184,193,194;,
 4;184,186,195,193;,
 4;186,187,196,195;,
 4;187,188,197,196;,
 4;188,189,198,197;,
 4;189,190,199,198;,
 4;190,191,200,199;,
 4;191,192,201,200;,
 4;194,193,202,203;,
 4;193,195,204,202;,
 4;195,196,205,204;,
 4;196,197,206,205;,
 4;197,198,207,206;,
 4;198,199,208,207;,
 4;199,200,209,208;,
 4;200,201,210,209;,
 4;203,202,211,212;,
 4;202,204,213,211;,
 4;204,205,214,213;,
 4;205,206,215,214;,
 4;206,207,216,215;,
 4;207,208,217,216;,
 4;208,209,218,217;,
 4;209,210,219,218;,
 4;212,211,220,221;,
 4;211,213,222,220;,
 4;213,214,223,222;,
 4;214,215,224,223;,
 4;215,216,225,224;,
 4;216,217,226,225;,
 4;217,218,227,226;,
 4;218,219,228,227;,
 3;221,220,229;,
 3;220,222,230;,
 3;222,223,231;,
 3;223,224,232;,
 3;224,225,233;,
 3;225,226,234;,
 3;226,227,235;,
 3;227,228,236;,
 3;237,238,239;,
 3;240,241,238;,
 3;242,243,241;,
 3;244,245,243;,
 3;246,247,245;,
 3;248,249,247;,
 3;250,251,249;,
 3;252,253,251;,
 4;239,238,254,255;,
 4;238,241,256,254;,
 4;241,243,257,256;,
 4;243,245,258,257;,
 4;245,247,259,258;,
 4;247,249,260,259;,
 4;249,251,261,260;,
 4;251,253,262,261;,
 4;255,254,263,264;,
 4;254,256,265,263;,
 4;256,257,266,265;,
 4;257,258,267,266;,
 4;258,259,268,267;,
 4;259,260,269,268;,
 4;260,261,270,269;,
 4;261,262,271,270;,
 4;264,263,272,273;,
 4;263,265,274,272;,
 4;265,266,275,274;,
 4;266,267,276,275;,
 4;267,268,277,276;,
 4;268,269,278,277;,
 4;269,270,279,278;,
 4;270,271,280,279;,
 4;273,272,281,282;,
 4;272,274,283,281;,
 4;274,275,284,283;,
 4;275,276,285,284;,
 4;276,277,286,285;,
 4;277,278,287,286;,
 4;278,279,288,287;,
 4;279,280,289,288;,
 4;282,281,290,291;,
 4;281,283,292,290;,
 4;283,284,293,292;,
 4;284,285,294,293;,
 4;285,286,295,294;,
 4;286,287,296,295;,
 4;287,288,297,296;,
 4;288,289,298,297;,
 4;291,290,299,300;,
 4;290,292,301,299;,
 4;292,293,302,301;,
 4;293,294,303,302;,
 4;294,295,304,303;,
 4;295,296,305,304;,
 4;296,297,306,305;,
 4;297,298,307,306;,
 3;300,299,308;,
 3;299,301,309;,
 3;301,302,310;,
 3;302,303,311;,
 3;303,304,312;,
 3;304,305,313;,
 3;305,306,314;,
 3;306,307,315;,
 3;316,317,318;,
 3;319,320,317;,
 3;321,322,320;,
 3;323,324,322;,
 3;325,326,324;,
 3;327,328,326;,
 3;329,330,328;,
 3;331,332,330;,
 4;318,317,333,334;,
 4;317,320,335,333;,
 4;320,322,336,335;,
 4;322,324,337,336;,
 4;324,326,338,337;,
 4;326,328,339,338;,
 4;328,330,340,339;,
 4;330,332,341,340;,
 4;334,333,342,343;,
 4;333,335,344,342;,
 4;335,336,345,344;,
 4;336,337,346,345;,
 4;337,338,347,346;,
 4;338,339,348,347;,
 4;339,340,349,348;,
 4;340,341,350,349;,
 4;343,342,351,352;,
 4;342,344,353,351;,
 4;344,345,354,353;,
 4;345,346,355,354;,
 4;346,347,356,355;,
 4;347,348,357,356;,
 4;348,349,358,357;,
 4;349,350,359,358;,
 4;352,351,360,361;,
 4;351,353,362,360;,
 4;353,354,363,362;,
 4;354,355,364,363;,
 4;355,356,365,364;,
 4;356,357,366,365;,
 4;357,358,367,366;,
 4;358,359,368,367;,
 4;361,360,369,370;,
 4;360,362,371,369;,
 4;362,363,372,371;,
 4;363,364,373,372;,
 4;364,365,374,373;,
 4;365,366,375,374;,
 4;366,367,376,375;,
 4;367,368,377,376;,
 4;370,369,378,379;,
 4;369,371,380,378;,
 4;371,372,381,380;,
 4;372,373,382,381;,
 4;373,374,383,382;,
 4;374,375,384,383;,
 4;375,376,385,384;,
 4;376,377,386,385;,
 3;379,378,387;,
 3;378,380,388;,
 3;380,381,389;,
 3;381,382,390;,
 3;382,383,391;,
 3;383,384,392;,
 3;384,385,393;,
 3;385,386,394;,
 3;395,396,397;,
 3;398,399,396;,
 3;400,401,399;,
 3;402,403,401;,
 3;404,405,403;,
 3;406,407,405;,
 3;408,409,407;,
 3;410,411,409;,
 4;397,396,412,413;,
 4;396,399,414,412;,
 4;399,401,415,414;,
 4;401,403,416,415;,
 4;403,405,417,416;,
 4;405,407,418,417;,
 4;407,409,419,418;,
 4;409,411,420,419;,
 4;413,412,421,422;,
 4;412,414,423,421;,
 4;414,415,424,423;,
 4;415,416,425,424;,
 4;416,417,426,425;,
 4;417,418,427,426;,
 4;418,419,428,427;,
 4;419,420,429,428;,
 4;422,421,430,431;,
 4;421,423,432,430;,
 4;423,424,433,432;,
 4;424,425,434,433;,
 4;425,426,435,434;,
 4;426,427,436,435;,
 4;427,428,437,436;,
 4;428,429,438,437;,
 4;431,430,439,440;,
 4;430,432,441,439;,
 4;432,433,442,441;,
 4;433,434,443,442;,
 4;434,435,444,443;,
 4;435,436,445,444;,
 4;436,437,446,445;,
 4;437,438,447,446;,
 4;440,439,448,449;,
 4;439,441,450,448;,
 4;441,442,451,450;,
 4;442,443,452,451;,
 4;443,444,453,452;,
 4;444,445,454,453;,
 4;445,446,455,454;,
 4;446,447,456,455;,
 4;449,448,457,458;,
 4;448,450,459,457;,
 4;450,451,460,459;,
 4;451,452,461,460;,
 4;452,453,462,461;,
 4;453,454,463,462;,
 4;454,455,464,463;,
 4;455,456,465,464;,
 3;458,457,466;,
 3;457,459,467;,
 3;459,460,468;,
 3;460,461,469;,
 3;461,462,470;,
 3;462,463,471;,
 3;463,464,472;,
 3;464,465,473;,
 3;474,475,476;,
 3;477,478,475;,
 3;479,480,478;,
 3;481,482,480;,
 3;483,484,482;,
 3;485,486,484;,
 3;487,488,486;,
 3;489,490,488;,
 4;476,475,491,492;,
 4;475,478,493,491;,
 4;478,480,494,493;,
 4;480,482,495,494;,
 4;482,484,496,495;,
 4;484,486,497,496;,
 4;486,488,498,497;,
 4;488,490,499,498;,
 4;492,491,500,501;,
 4;491,493,502,500;,
 4;493,494,503,502;,
 4;494,495,504,503;,
 4;495,496,505,504;,
 4;496,497,506,505;,
 4;497,498,507,506;,
 4;498,499,508,507;,
 4;501,500,509,510;,
 4;500,502,511,509;,
 4;502,503,512,511;,
 4;503,504,513,512;,
 4;504,505,514,513;,
 4;505,506,515,514;,
 4;506,507,516,515;,
 4;507,508,517,516;,
 4;510,509,518,519;,
 4;509,511,520,518;,
 4;511,512,521,520;,
 4;512,513,522,521;,
 4;513,514,523,522;,
 4;514,515,524,523;,
 4;515,516,525,524;,
 4;516,517,526,525;,
 4;519,518,527,528;,
 4;518,520,529,527;,
 4;520,521,530,529;,
 4;521,522,531,530;,
 4;522,523,532,531;,
 4;523,524,533,532;,
 4;524,525,534,533;,
 4;525,526,535,534;,
 4;528,527,536,537;,
 4;527,529,538,536;,
 4;529,530,539,538;,
 4;530,531,540,539;,
 4;531,532,541,540;,
 4;532,533,542,541;,
 4;533,534,543,542;,
 4;534,535,544,543;,
 3;537,536,545;,
 3;536,538,546;,
 3;538,539,547;,
 3;539,540,548;,
 3;540,541,549;,
 3;541,542,550;,
 3;542,543,551;,
 3;543,544,552;,
 3;553,554,555;,
 3;556,557,554;,
 3;558,559,557;,
 3;560,561,559;,
 3;562,563,561;,
 3;564,565,563;,
 3;566,567,565;,
 3;568,569,567;,
 4;555,554,570,571;,
 4;554,557,572,570;,
 4;557,559,573,572;,
 4;559,561,574,573;,
 4;561,563,575,574;,
 4;563,565,576,575;,
 4;565,567,577,576;,
 4;567,569,578,577;,
 4;571,570,579,580;,
 4;570,572,581,579;,
 4;572,573,582,581;,
 4;573,574,583,582;,
 4;574,575,584,583;,
 4;575,576,585,584;,
 4;576,577,586,585;,
 4;577,578,587,586;,
 4;580,579,588,589;,
 4;579,581,590,588;,
 4;581,582,591,590;,
 4;582,583,592,591;,
 4;583,584,593,592;,
 4;584,585,594,593;,
 4;585,586,595,594;,
 4;586,587,596,595;,
 4;589,588,597,598;,
 4;588,590,599,597;,
 4;590,591,600,599;,
 4;591,592,601,600;,
 4;592,593,602,601;,
 4;593,594,603,602;,
 4;594,595,604,603;,
 4;595,596,605,604;,
 4;598,597,606,607;,
 4;597,599,608,606;,
 4;599,600,609,608;,
 4;600,601,610,609;,
 4;601,602,611,610;,
 4;602,603,612,611;,
 4;603,604,613,612;,
 4;604,605,614,613;,
 4;607,606,615,616;,
 4;606,608,617,615;,
 4;608,609,618,617;,
 4;609,610,619,618;,
 4;610,611,620,619;,
 4;611,612,621,620;,
 4;612,613,622,621;,
 4;613,614,623,622;,
 3;616,615,624;,
 3;615,617,625;,
 3;617,618,626;,
 3;618,619,627;,
 3;619,620,628;,
 3;620,621,629;,
 3;621,622,630;,
 3;622,623,631;,
 3;632,633,634;,
 3;635,636,633;,
 3;637,638,636;,
 3;639,640,638;,
 3;641,642,640;,
 3;643,644,642;,
 3;645,646,644;,
 3;647,648,646;,
 4;634,633,649,650;,
 4;633,636,651,649;,
 4;636,638,652,651;,
 4;638,640,653,652;,
 4;640,642,654,653;,
 4;642,644,655,654;,
 4;644,646,656,655;,
 4;646,648,657,656;,
 4;650,649,658,659;,
 4;649,651,660,658;,
 4;651,652,661,660;,
 4;652,653,662,661;,
 4;653,654,663,662;,
 4;654,655,664,663;,
 4;655,656,665,664;,
 4;656,657,666,665;,
 4;659,658,667,668;,
 4;658,660,669,667;,
 4;660,661,670,669;,
 4;661,662,671,670;,
 4;662,663,672,671;,
 4;663,664,673,672;,
 4;664,665,674,673;,
 4;665,666,675,674;,
 4;668,667,676,677;,
 4;667,669,678,676;,
 4;669,670,679,678;,
 4;670,671,680,679;,
 4;671,672,681,680;,
 4;672,673,682,681;,
 4;673,674,683,682;,
 4;674,675,684,683;,
 4;677,676,685,686;,
 4;676,678,687,685;,
 4;678,679,688,687;,
 4;679,680,689,688;,
 4;680,681,690,689;,
 4;681,682,691,690;,
 4;682,683,692,691;,
 4;683,684,693,692;,
 4;686,685,694,695;,
 4;685,687,696,694;,
 4;687,688,697,696;,
 4;688,689,698,697;,
 4;689,690,699,698;,
 4;690,691,700,699;,
 4;691,692,701,700;,
 4;692,693,702,701;,
 3;695,694,703;,
 3;694,696,704;,
 3;696,697,705;,
 3;697,698,706;,
 3;698,699,707;,
 3;699,700,708;,
 3;700,701,709;,
 3;701,702,710;;
 
 MeshMaterialList {
  6;
  576;
  0,
  0,
  0,
  0,
  0,
  0,
  0,
  0,
  0,
  0,
  0,
  0,
  0,
  0,
  0,
  0,
  0,
  0,
  0,
  0,
  0,
  0,
  0,
  0,
  0,
  0,
  0,
  0,
  0,
  0,
  0,
  0,
  0,
  0,
  0,
  0,
  0,
  0,
  0,
  0,
  0,
  0,
  0,
  0,
  0,
  0,
  0,
  0,
  0,
  0,
  0,
  0,
  0,
  0,
  0,
  0,
  0,
  0,
  0,
  0,
  0,
  0,
  0,
  0,
  0,
  0,
  0,
  0,
  0,
  0,
  0,
  0,
  0,
  0,
  0,
  0,
  0,
  0,
  0,
  0,
  0,
  0,
  0,
  0,
  0,
  0,
  0,
  0,
  0,
  0,
  0,
  0,
  0,
  0,
  0,
  0,
  0,
  0,
  0,
  0,
  0,
  0,
  0,
  0,
  0,
  0,
  0,
  0,
  0,
  0,
  0,
  0,
  0,
  0,
  0,
  0,
  0,
  0,
  0,
  0,
  0,
  0,
  0,
  0,
  0,
  0,
  0,
  0,
  5,
  5,
  5,
  5,
  5,
  5,
  5,
  5,
  5,
  5,
  5,
  5,
  5,
  5,
  5,
  5,
  5,
  5,
  5,
  5,
  5,
  5,
  5,
  5,
  5,
  5,
  5,
  5,
  5,
  5,
  5,
  5,
  5,
  5,
  5,
  5,
  5,
  5,
  5,
  5,
  5,
  5,
  5,
  5,
  5,
  5,
  5,
  5,
  5,
  5,
  5,
  5,
  5,
  5,
  5,
  5,
  5,
  5,
  5,
  5,
  5,
  5,
  5,
  5,
  0,
  0,
  0,
  0,
  0,
  0,
  0,
  0,
  0,
  0,
  0,
  0,
  0,
  0,
  0,
  0,
  0,
  0,
  0,
  0,
  0,
  0,
  0,
  0,
  0,
  0,
  0,
  0,
  0,
  0,
  0,
  0,
  0,
  0,
  0,
  0,
  0,
  0,
  0,
  0,
  0,
  0,
  0,
  0,
  0,
  0,
  0,
  0,
  0,
  0,
  0,
  0,
  0,
  0,
  0,
  0,
  0,
  0,
  0,
  0,
  0,
  0,
  0,
  0,
  0,
  0,
  0,
  0,
  0,
  0,
  0,
  0,
  0,
  0,
  0,
  0,
  0,
  0,
  0,
  0,
  0,
  0,
  0,
  0,
  0,
  0,
  0,
  0,
  0,
  0,
  0,
  0,
  0,
  0,
  0,
  0,
  0,
  0,
  0,
  0,
  0,
  0,
  0,
  0,
  0,
  0,
  0,
  0,
  0,
  0,
  0,
  0,
  0,
  0,
  0,
  0,
  0,
  0,
  0,
  0,
  0,
  0,
  0,
  0,
  0,
  0,
  0,
  0,
  5,
  5,
  5,
  5,
  5,
  5,
  5,
  5,
  5,
  5,
  5,
  5,
  5,
  5,
  5,
  5,
  5,
  5,
  5,
  5,
  5,
  5,
  5,
  5,
  5,
  5,
  5,
  5,
  5,
  5,
  5,
  5,
  5,
  5,
  5,
  5,
  5,
  5,
  5,
  5,
  5,
  5,
  5,
  5,
  5,
  5,
  5,
  5,
  5,
  5,
  5,
  5,
  5,
  5,
  5,
  5,
  5,
  5,
  5,
  5,
  5,
  5,
  5,
  5,
  1,
  1,
  1,
  1,
  1,
  1,
  1,
  1,
  1,
  1,
  1,
  1,
  1,
  1,
  1,
  1,
  1,
  1,
  1,
  1,
  1,
  1,
  1,
  1,
  1,
  1,
  1,
  1,
  1,
  1,
  1,
  1,
  1,
  1,
  1,
  1,
  1,
  1,
  1,
  1,
  1,
  1,
  1,
  1,
  1,
  1,
  1,
  1,
  1,
  1,
  1,
  1,
  1,
  1,
  1,
  1,
  1,
  1,
  1,
  1,
  1,
  1,
  1,
  1,
  1,
  1,
  1,
  1,
  1,
  1,
  1,
  1,
  1,
  1,
  1,
  1,
  1,
  1,
  1,
  1,
  1,
  1,
  1,
  1,
  1,
  1,
  1,
  1,
  1,
  1,
  1,
  1,
  1,
  1,
  1,
  1,
  1,
  1,
  1,
  1,
  1,
  1,
  1,
  1,
  1,
  1,
  1,
  1,
  1,
  1,
  1,
  1,
  1,
  1,
  1,
  1,
  1,
  1,
  1,
  1,
  1,
  1,
  1,
  1,
  1,
  1,
  1,
  1,
  2,
  2,
  2,
  2,
  2,
  2,
  2,
  2,
  2,
  2,
  2,
  2,
  2,
  2,
  2,
  2,
  2,
  2,
  2,
  2,
  2,
  2,
  2,
  2,
  2,
  2,
  2,
  2,
  2,
  2,
  2,
  2,
  2,
  2,
  2,
  2,
  2,
  2,
  2,
  2,
  2,
  2,
  2,
  2,
  2,
  2,
  2,
  2,
  2,
  2,
  2,
  2,
  2,
  2,
  2,
  2,
  2,
  2,
  2,
  2,
  2,
  2,
  2,
  2;;
  Material {
   0.517600;0.088000;0.081600;1.000000;;
   5.000000;
   0.000000;0.000000;0.000000;;
   0.000000;0.000000;0.000000;;
  }
  Material {
   0.000000;0.000000;0.000000;1.000000;;
   5.000000;
   0.000000;0.000000;0.000000;;
   0.000000;0.000000;0.000000;;
  }
  Material {
   0.241600;0.153600;0.112800;1.000000;;
   5.000000;
   0.000000;0.000000;0.000000;;
   0.000000;0.000000;0.000000;;
  }
  Material {
   0.800000;0.800000;0.800000;1.000000;;
   5.000000;
   0.000000;0.000000;0.000000;;
   0.000000;0.000000;0.000000;;
  }
  Material {
   0.800000;0.800000;0.800000;1.000000;;
   5.000000;
   0.000000;0.000000;0.000000;;
   0.000000;0.000000;0.000000;;
  }
  Material {
   1.000000;1.000000;1.000000;1.000000;;
   0.000000;
   0.000000;0.000000;0.000000;;
   0.000000;0.000000;0.000000;;
  }
 }
 MeshNormals {
  534;
  -0.000000;1.000000;0.000000;,
  0.008032;0.887787;0.460184;,
  -0.294051;0.895824;0.333216;,
  -0.427349;0.904056;0.007459;,
  -0.305500;0.895824;-0.322751;,
  -0.008032;0.887787;-0.460184;,
  0.294050;0.895824;-0.333217;,
  0.427348;0.904056;-0.007459;,
  0.305500;0.895824;0.322752;,
  0.013668;0.621811;0.783048;,
  -0.511445;0.639183;0.574342;,
  -0.753250;0.657603;0.013148;,
  -0.531178;0.639182;-0.556144;,
  -0.013668;0.621811;-0.783048;,
  0.511444;0.639183;-0.574343;,
  0.753249;0.657604;-0.013148;,
  0.531178;0.639181;0.556145;,
  0.016586;0.311241;0.950186;,
  -0.631546;0.324612;0.704114;,
  -0.940567;0.339212;0.016418;,
  -0.655735;0.324612;-0.681644;,
  -0.016586;0.311241;-0.950186;,
  0.631545;0.324613;-0.704114;,
  0.940566;0.339215;-0.016417;,
  0.655733;0.324613;0.681645;,
  0.017453;-0.000000;0.999848;,
  -0.668627;-0.000000;0.743598;,
  -0.999848;-0.000000;0.017452;,
  -0.694171;-0.000000;-0.719811;,
  -0.017453;-0.000000;-0.999848;,
  0.668626;-0.000000;-0.743599;,
  0.999848;-0.000000;-0.017451;,
  0.694169;-0.000000;0.719812;,
  0.016586;-0.311241;0.950186;,
  -0.631547;-0.324611;0.704114;,
  -0.940567;-0.339212;0.016417;,
  -0.655735;-0.324611;-0.681645;,
  -0.016586;-0.311240;-0.950186;,
  0.631545;-0.324612;-0.704115;,
  0.940566;-0.339214;-0.016417;,
  0.655733;-0.324612;0.681646;,
  0.013668;-0.621810;0.783049;,
  -0.511446;-0.639182;0.574343;,
  -0.753251;-0.657602;0.013148;,
  -0.531178;-0.639182;-0.556144;,
  -0.013668;-0.621811;-0.783048;,
  0.511444;-0.639182;-0.574344;,
  0.753250;-0.657603;-0.013148;,
  0.531178;-0.639181;0.556146;,
  0.008032;-0.887787;0.460184;,
  -0.294051;-0.895824;0.333216;,
  -0.427349;-0.904056;0.007460;,
  -0.305500;-0.895825;-0.322751;,
  -0.008032;-0.887788;-0.460184;,
  0.294050;-0.895824;-0.333217;,
  0.427348;-0.904056;-0.007459;,
  0.305500;-0.895824;0.322752;,
  -0.000000;-1.000000;0.000000;,
  -0.000000;1.000000;0.000000;,
  0.002617;0.988690;0.149949;,
  -0.104179;0.988690;0.107881;,
  -0.149949;0.988690;0.002617;,
  -0.107881;0.988690;-0.104179;,
  -0.002618;0.988690;-0.149948;,
  0.104179;0.988690;-0.107880;,
  0.149949;0.988690;-0.002617;,
  0.107880;0.988690;0.104179;,
  0.006108;0.936741;0.349970;,
  -0.243147;0.936741;0.251786;,
  -0.349970;0.936741;0.006109;,
  -0.251786;0.936741;-0.243147;,
  -0.006109;0.936741;-0.349971;,
  0.243146;0.936741;-0.251785;,
  0.349969;0.936741;-0.006109;,
  0.251785;0.936741;0.243146;,
  0.012087;0.721323;0.692494;,
  -0.481120;0.721323;0.498214;,
  -0.692493;0.721324;0.012088;,
  -0.498213;0.721323;-0.481120;,
  -0.012088;0.721321;-0.692496;,
  0.481121;0.721321;-0.498216;,
  0.692496;0.721321;-0.012088;,
  0.498215;0.721322;0.481120;,
  0.015200;0.491331;0.870840;,
  -0.605029;0.491331;0.626525;,
  -0.870839;0.491333;0.015201;,
  -0.626524;0.491332;-0.605029;,
  -0.015202;0.491327;-0.870842;,
  0.605031;0.491324;-0.626529;,
  0.870844;0.491324;-0.015201;,
  0.626527;0.491328;0.605029;,
  0.012087;-0.721323;0.692494;,
  -0.481119;-0.721323;0.498214;,
  -0.692492;-0.721324;0.012088;,
  -0.498213;-0.721323;-0.481120;,
  -0.012088;-0.721321;-0.692496;,
  0.481121;-0.721321;-0.498216;,
  0.692495;-0.721321;-0.012088;,
  0.498215;-0.721322;0.481120;,
  0.006108;-0.936741;0.349970;,
  -0.243147;-0.936741;0.251786;,
  -0.349970;-0.936741;0.006109;,
  -0.251786;-0.936741;-0.243147;,
  -0.006109;-0.936741;-0.349971;,
  0.243146;-0.936741;-0.251785;,
  0.349969;-0.936741;-0.006109;,
  0.251785;-0.936741;0.243146;,
  0.002617;-0.988690;0.149949;,
  -0.104179;-0.988690;0.107881;,
  -0.149949;-0.988690;0.002617;,
  -0.107881;-0.988690;-0.104179;,
  -0.002618;-0.988690;-0.149948;,
  0.104179;-0.988690;-0.107880;,
  0.149949;-0.988690;-0.002617;,
  0.107880;-0.988690;0.104179;,
  -0.000000;-1.000000;0.000000;,
  0.015200;-0.491332;0.870840;,
  -0.605028;-0.491332;0.626525;,
  -0.870839;-0.491333;0.015201;,
  -0.626524;-0.491333;-0.605028;,
  -0.015201;-0.491328;-0.870842;,
  0.605031;-0.491325;-0.626529;,
  0.870844;-0.491324;-0.015201;,
  0.626527;-0.491328;0.605029;,
  0.000000;1.000000;0.000000;,
  0.006642;0.924735;0.380554;,
  -0.264395;0.924735;0.273790;,
  -0.380554;0.924735;0.006643;,
  -0.273790;0.924735;-0.264395;,
  -0.006643;0.924734;-0.380555;,
  0.264396;0.924735;-0.273790;,
  0.380555;0.924735;-0.006643;,
  0.273789;0.924735;0.264395;,
  0.012303;0.709231;0.704869;,
  -0.489718;0.709230;0.507118;,
  -0.704870;0.709230;0.012304;,
  -0.507117;0.709231;-0.489718;,
  -0.012303;0.709230;-0.704870;,
  0.489719;0.709229;-0.507119;,
  0.704870;0.709230;-0.012305;,
  0.507118;0.709231;0.489717;,
  0.016111;0.384551;0.922963;,
  -0.641242;0.384552;0.664025;,
  -0.922964;0.384549;0.016111;,
  -0.664026;0.384550;-0.641241;,
  -0.016110;0.384552;-0.922963;,
  0.641241;0.384553;-0.664025;,
  0.922962;0.384553;-0.016111;,
  0.664025;0.384551;0.641242;,
  0.017453;0.000001;0.999848;,
  -0.694659;0.000001;0.719339;,
  -0.999848;0.000000;0.017452;,
  -0.719341;0.000000;-0.694657;,
  -0.017452;0.000000;-0.999848;,
  0.694659;0.000001;-0.719340;,
  0.999848;0.000001;-0.017452;,
  0.719339;0.000001;0.694659;,
  0.016111;-0.384551;0.922963;,
  -0.641242;-0.384551;0.664025;,
  -0.922964;-0.384549;0.016111;,
  -0.664026;-0.384550;-0.641241;,
  -0.016110;-0.384552;-0.922963;,
  0.641241;-0.384553;-0.664025;,
  0.922963;-0.384552;-0.016111;,
  0.664025;-0.384551;0.641242;,
  0.012303;-0.709231;0.704869;,
  -0.489717;-0.709231;0.507118;,
  -0.704870;-0.709230;0.012304;,
  -0.507117;-0.709231;-0.489718;,
  -0.012303;-0.709230;-0.704869;,
  0.489719;-0.709230;-0.507119;,
  0.704870;-0.709230;-0.012304;,
  0.507118;-0.709231;0.489717;,
  0.006642;-0.924735;0.380554;,
  -0.264395;-0.924735;0.273790;,
  -0.380554;-0.924735;0.006643;,
  -0.273790;-0.924735;-0.264395;,
  -0.006643;-0.924734;-0.380555;,
  0.264396;-0.924735;-0.273790;,
  0.380555;-0.924734;-0.006643;,
  0.273789;-0.924735;0.264395;,
  0.000000;-1.000000;0.000000;,
  -0.000000;1.000000;0.000001;,
  0.006643;0.924736;0.380550;,
  -0.264391;0.924737;0.273786;,
  -0.380552;0.924736;0.006642;,
  -0.273788;0.924736;-0.264394;,
  -0.006645;0.924736;-0.380550;,
  0.264391;0.924737;-0.273784;,
  0.380549;0.924737;-0.006640;,
  0.273784;0.924737;0.264394;,
  0.012304;0.709235;0.704865;,
  -0.489715;0.709235;0.507115;,
  -0.704867;0.709233;0.012301;,
  -0.507117;0.709231;-0.489718;,
  -0.012306;0.709231;-0.704869;,
  0.489716;0.709233;-0.507116;,
  0.704866;0.709233;-0.012302;,
  0.507114;0.709235;0.489715;,
  0.016110;0.384551;0.922963;,
  -0.641243;0.384549;0.664025;,
  -0.922964;0.384549;0.016109;,
  -0.664025;0.384550;-0.641242;,
  -0.016111;0.384551;-0.922963;,
  0.641242;0.384549;-0.664026;,
  0.922964;0.384548;-0.016110;,
  0.664026;0.384550;0.641241;,
  0.017452;0.000001;0.999848;,
  -0.694660;0.000001;0.719338;,
  -0.999848;0.000001;0.017451;,
  -0.719341;0.000001;-0.694657;,
  -0.017453;0.000001;-0.999848;,
  0.694659;0.000001;-0.719339;,
  0.999848;0.000001;-0.017452;,
  0.719340;0.000001;0.694658;,
  0.016110;-0.384550;0.922964;,
  -0.641244;-0.384548;0.664025;,
  -0.922964;-0.384548;0.016109;,
  -0.664026;-0.384549;-0.641243;,
  -0.016111;-0.384550;-0.922964;,
  0.641242;-0.384548;-0.664026;,
  0.922965;-0.384547;-0.016110;,
  0.664027;-0.384549;0.641241;,
  0.012304;-0.709231;0.704868;,
  -0.489718;-0.709231;0.507118;,
  -0.704871;-0.709229;0.012301;,
  -0.507119;-0.709228;-0.489721;,
  -0.012306;-0.709227;-0.704873;,
  0.489718;-0.709229;-0.507119;,
  0.704870;-0.709230;-0.012302;,
  0.507117;-0.709231;0.489718;,
  0.006643;-0.924737;0.380549;,
  -0.264391;-0.924737;0.273785;,
  -0.380551;-0.924736;0.006642;,
  -0.273787;-0.924736;-0.264393;,
  -0.006645;-0.924737;-0.380549;,
  0.264390;-0.924738;-0.273784;,
  0.380547;-0.924738;-0.006640;,
  0.273783;-0.924738;0.264393;,
  -0.000000;-1.000000;0.000001;,
  0.000001;1.000000;-0.000000;,
  0.006641;0.924736;0.380550;,
  -0.264393;0.924738;0.273783;,
  -0.380550;0.924736;0.006643;,
  -0.273787;0.924737;-0.264391;,
  -0.006640;0.924736;-0.380552;,
  0.264395;0.924736;-0.273787;,
  0.380552;0.924736;-0.006644;,
  0.273788;0.924736;0.264393;,
  0.012305;0.709233;0.704866;,
  -0.489716;0.709236;0.507112;,
  -0.704867;0.709233;0.012302;,
  -0.507117;0.709232;-0.489716;,
  -0.012302;0.709232;-0.704868;,
  0.489719;0.709233;-0.507114;,
  0.704868;0.709232;-0.012304;,
  0.507118;0.709233;0.489714;,
  0.016112;0.384549;0.922964;,
  -0.641243;0.384549;0.664025;,
  -0.922963;0.384552;0.016108;,
  -0.664025;0.384551;-0.641241;,
  -0.016111;0.384549;-0.922964;,
  0.641244;0.384549;-0.664024;,
  0.922964;0.384550;-0.016111;,
  0.664028;0.384551;0.641239;,
  0.017453;0.000001;0.999848;,
  -0.694659;0.000001;0.719340;,
  -0.999848;0.000001;0.017451;,
  -0.719340;0.000001;-0.694658;,
  -0.017454;0.000001;-0.999848;,
  0.694658;0.000001;-0.719340;,
  0.999848;0.000001;-0.017453;,
  0.719341;0.000001;0.694657;,
  0.016112;-0.384548;0.922965;,
  -0.641243;-0.384548;0.664025;,
  -0.922963;-0.384551;0.016108;,
  -0.664026;-0.384550;-0.641242;,
  -0.016111;-0.384548;-0.922964;,
  0.641244;-0.384548;-0.664025;,
  0.922964;-0.384549;-0.016111;,
  0.664028;-0.384550;0.641240;,
  0.012305;-0.709230;0.704869;,
  -0.489719;-0.709232;0.507115;,
  -0.704871;-0.709229;0.012301;,
  -0.507121;-0.709227;-0.489719;,
  -0.012303;-0.709228;-0.704871;,
  0.489721;-0.709229;-0.507116;,
  0.704872;-0.709228;-0.012304;,
  0.507121;-0.709230;0.489716;,
  0.006641;-0.924737;0.380548;,
  -0.264392;-0.924738;0.273782;,
  -0.380550;-0.924737;0.006643;,
  -0.273787;-0.924737;-0.264391;,
  -0.006640;-0.924736;-0.380550;,
  0.264394;-0.924736;-0.273785;,
  0.380551;-0.924736;-0.006644;,
  0.273786;-0.924737;0.264391;,
  0.000001;-1.000000;-0.000000;,
  -0.000000;1.000000;0.000002;,
  0.006661;0.924275;0.381669;,
  -0.184747;0.942687;0.277866;,
  -0.272781;0.962064;0.004763;,
  -0.194332;0.942689;-0.271244;,
  -0.006663;0.924278;-0.381662;,
  0.184747;0.942690;-0.277857;,
  0.272781;0.962065;-0.004759;,
  0.194331;0.942688;0.271246;,
  0.012322;0.708117;0.705987;,
  -0.367047;0.761584;0.534104;,
  -0.565749;0.824518;0.009876;,
  -0.385465;0.761584;-0.520968;,
  -0.012325;0.708118;-0.705986;,
  0.367049;0.761586;-0.534100;,
  0.565749;0.824518;-0.009872;,
  0.385463;0.761585;0.520967;,
  0.016117;0.383601;0.923358;,
  -0.521227;0.439049;0.731819;,
  -0.856745;0.515524;0.014956;,
  -0.546453;0.439044;-0.713183;,
  -0.016119;0.383594;-0.923361;,
  0.521230;0.439043;-0.731820;,
  0.856746;0.515521;-0.014952;,
  0.546450;0.439046;0.713184;,
  0.017452;0.000001;0.999848;,
  -0.586109;0.000001;0.810233;,
  -0.842825;0.000002;0.538188;,
  -0.614030;0.000002;-0.789282;,
  -0.017454;0.000001;-0.999848;,
  0.586109;0.000002;-0.810232;,
  0.842827;0.000002;-0.538185;,
  0.614027;0.000002;0.789285;,
  0.016117;-0.383600;0.923359;,
  -0.521228;-0.439047;0.731819;,
  -0.793064;-0.574028;0.203820;,
  -0.546454;-0.439042;-0.713183;,
  -0.016119;-0.383593;-0.923362;,
  0.521231;-0.439041;-0.731820;,
  0.793066;-0.574025;-0.203818;,
  0.546451;-0.439044;0.713184;,
  0.012322;-0.708115;0.705990;,
  -0.367048;-0.761581;0.534106;,
  -0.565752;-0.824516;0.009876;,
  -0.385467;-0.761581;-0.520970;,
  -0.012325;-0.708115;-0.705989;,
  0.367051;-0.761583;-0.534102;,
  0.565753;-0.824516;-0.009872;,
  0.385465;-0.761582;0.520970;,
  0.006661;-0.924276;0.381667;,
  -0.184746;-0.942688;0.277865;,
  -0.272780;-0.962065;0.004763;,
  -0.194332;-0.942689;-0.271243;,
  -0.006663;-0.924278;-0.381661;,
  0.184746;-0.942690;-0.277856;,
  0.272780;-0.962065;-0.004759;,
  0.194331;-0.942689;0.271245;,
  -0.000000;-1.000000;0.000002;,
  -0.861097;0.000002;-0.508440;,
  0.861093;0.000001;0.508448;,
  -0.835122;-0.243764;-0.493103;,
  0.835119;-0.243757;0.493112;,
  0.000003;1.000000;0.000003;,
  0.009220;0.849102;0.528149;,
  -0.283522;0.876456;0.389152;,
  -0.422604;0.906285;0.007384;,
  -0.296934;0.876458;-0.379014;,
  -0.009223;0.849100;-0.528152;,
  0.283523;0.876461;-0.389141;,
  0.422602;0.906285;-0.007369;,
  0.296931;0.876460;0.379012;,
  0.014597;0.547891;0.836423;,
  -0.479990;0.599432;0.640540;,
  -0.749187;0.662229;0.013086;,
  -0.502057;0.599429;-0.623397;,
  -0.014602;0.547873;-0.836434;,
  0.479995;0.599425;-0.640543;,
  0.749186;0.662231;-0.013077;,
  0.502049;0.599439;0.623393;,
  0.016850;0.259697;0.965543;,
  -0.580400;0.295405;0.758862;,
  -0.939285;0.342746;0.016400;,
  -0.606528;0.295405;-0.738146;,
  -0.016851;0.259692;-0.965544;,
  0.580397;0.295398;-0.758868;,
  0.939288;0.342739;-0.016399;,
  0.606529;0.295400;0.738147;,
  0.017451;0.000001;0.999848;,
  -0.610032;0.000002;0.792377;,
  -0.999848;0.000002;0.017454;,
  -0.637310;0.000002;-0.770607;,
  -0.017449;0.000001;-0.999848;,
  0.610028;0.000002;-0.792380;,
  0.999848;0.000002;-0.017453;,
  0.637312;0.000001;0.770606;,
  0.016850;-0.259700;0.965542;,
  -0.580399;-0.295408;0.758862;,
  -0.939284;-0.342749;0.016400;,
  -0.606527;-0.295408;-0.738145;,
  -0.016851;-0.259694;-0.965544;,
  0.580396;-0.295400;-0.758867;,
  0.939287;-0.342741;-0.016399;,
  0.606529;-0.295403;0.738146;,
  0.014596;-0.547898;0.836418;,
  -0.479987;-0.599438;0.640537;,
  -0.749181;-0.662236;0.013086;,
  -0.502054;-0.599435;-0.623393;,
  -0.014601;-0.547877;-0.836431;,
  0.479991;-0.599430;-0.640540;,
  0.749181;-0.662236;-0.013077;,
  0.502047;-0.599446;0.623389;,
  0.009220;-0.849096;0.528158;,
  -0.283527;-0.876451;0.389161;,
  -0.422611;-0.906281;0.007384;,
  -0.296939;-0.876453;-0.379022;,
  -0.009223;-0.849092;-0.528164;,
  0.283529;-0.876455;-0.389150;,
  0.422611;-0.906281;-0.007369;,
  0.296937;-0.876455;0.379018;,
  0.000003;-1.000000;0.000003;,
  -0.000000;1.000000;-0.000001;,
  0.009217;0.849101;0.528151;,
  -0.283520;0.876459;0.389148;,
  -0.422602;0.906285;0.007380;,
  -0.296928;0.876459;-0.379017;,
  -0.009215;0.849099;-0.528153;,
  0.283526;0.876462;-0.389138;,
  0.422606;0.906284;-0.007374;,
  0.296930;0.876462;0.379009;,
  0.014596;0.547880;0.836429;,
  -0.479988;0.599429;0.640544;,
  -0.749186;0.662231;0.013078;,
  -0.502052;0.599426;-0.623404;,
  -0.014598;0.547875;-0.836433;,
  0.479996;0.599431;-0.640536;,
  0.749187;0.662229;-0.013078;,
  0.502053;0.599434;0.623395;,
  0.016849;0.259690;0.965545;,
  -0.580396;0.295397;0.758868;,
  -0.939287;0.342741;0.016393;,
  -0.606526;0.295399;-0.738150;,
  -0.016854;0.259690;-0.965545;,
  0.580399;0.295402;-0.758864;,
  0.939285;0.342747;-0.016399;,
  0.606527;0.295402;0.738148;,
  0.017449;0.000002;0.999848;,
  -0.610026;0.000002;0.792381;,
  -0.999848;0.000002;0.017450;,
  -0.637309;0.000002;-0.770608;,
  -0.017453;0.000001;-0.999848;,
  0.610031;0.000002;-0.792377;,
  0.999848;0.000002;-0.017455;,
  0.637310;0.000002;0.770607;,
  0.016849;-0.259693;0.965544;,
  -0.580395;-0.295400;0.758868;,
  -0.939286;-0.342744;0.016393;,
  -0.606525;-0.295401;-0.738150;,
  -0.016854;-0.259693;-0.965544;,
  0.580398;-0.295406;-0.758863;,
  0.939284;-0.342749;-0.016399;,
  0.606527;-0.295404;0.738147;,
  0.014596;-0.547884;0.836427;,
  -0.479986;-0.599433;0.640541;,
  -0.749182;-0.662235;0.013078;,
  -0.502050;-0.599432;-0.623400;,
  -0.014597;-0.547882;-0.836428;,
  0.479994;-0.599435;-0.640533;,
  0.749184;-0.662232;-0.013078;,
  0.502051;-0.599437;0.623394;,
  0.009218;-0.849092;0.528164;,
  -0.283527;-0.876453;0.389157;,
  -0.422612;-0.906281;0.007380;,
  -0.296934;-0.876454;-0.379024;,
  -0.009214;-0.849092;-0.528164;,
  0.283533;-0.876455;-0.389148;,
  0.422617;-0.906278;-0.007375;,
  0.296937;-0.876455;0.379019;,
  -0.000000;-1.000000;-0.000001;,
  -0.000001;1.000000;-0.000001;,
  0.009220;0.849103;0.528147;,
  -0.283522;0.876459;0.389145;,
  -0.422601;0.906286;0.007371;,
  -0.296936;0.876458;-0.379012;,
  -0.009221;0.849105;-0.528143;,
  0.283532;0.876457;-0.389142;,
  0.422607;0.906283;-0.007375;,
  0.296933;0.876460;0.379011;,
  0.014602;0.547882;0.836428;,
  -0.479994;0.599430;0.640538;,
  -0.749187;0.662230;0.013073;,
  -0.502057;0.599429;-0.623397;,
  -0.014599;0.547882;-0.836428;,
  0.479998;0.599426;-0.640540;,
  0.749187;0.662230;-0.013077;,
  0.502057;0.599428;0.623397;,
  0.016855;0.259693;0.965544;,
  -0.580401;0.295399;0.758863;,
  -0.939288;0.342737;0.016394;,
  -0.606531;0.295397;-0.738147;,
  -0.016854;0.259691;-0.965545;,
  0.580396;0.295402;-0.758866;,
  0.939285;0.342745;-0.016394;,
  0.606527;0.295402;0.738148;,
  0.017451;0.000001;0.999848;,
  -0.610032;0.000001;0.792377;,
  -0.999848;0.000001;0.017453;,
  -0.637314;0.000001;-0.770604;,
  -0.017454;0.000001;-0.999848;,
  0.610027;0.000001;-0.792380;,
  0.999848;0.000001;-0.017449;,
  0.637308;0.000001;0.770609;,
  0.016855;-0.259697;0.965543;,
  -0.580401;-0.295403;0.758863;,
  -0.939287;-0.342741;0.016394;,
  -0.606530;-0.295401;-0.738146;,
  -0.016854;-0.259694;-0.965544;,
  0.580396;-0.295405;-0.758865;,
  0.939284;-0.342750;-0.016394;,
  0.606526;-0.295407;0.738147;,
  0.014603;-0.547885;0.836426;,
  -0.479993;-0.599433;0.640536;,
  -0.749182;-0.662235;0.013074;,
  -0.502053;-0.599435;-0.623394;,
  -0.014599;-0.547885;-0.836426;,
  0.479996;-0.599429;-0.640538;,
  0.749182;-0.662235;-0.013077;,
  0.502055;-0.599432;0.623395;,
  0.009220;-0.849095;0.528160;,
  -0.283529;-0.876453;0.389155;,
  -0.422609;-0.906282;0.007372;,
  -0.296941;-0.876453;-0.379020;,
  -0.009221;-0.849097;-0.528156;,
  0.283539;-0.876451;-0.389152;,
  0.422616;-0.906279;-0.007375;,
  0.296940;-0.876453;0.379021;,
  -0.000001;-1.000000;-0.000001;;
  576;
  3;0,2,1;,
  3;0,3,2;,
  3;0,4,3;,
  3;0,5,4;,
  3;0,6,5;,
  3;0,7,6;,
  3;0,8,7;,
  3;0,1,8;,
  4;1,2,10,9;,
  4;2,3,11,10;,
  4;3,4,12,11;,
  4;4,5,13,12;,
  4;5,6,14,13;,
  4;6,7,15,14;,
  4;7,8,16,15;,
  4;8,1,9,16;,
  4;9,10,18,17;,
  4;10,11,19,18;,
  4;11,12,20,19;,
  4;12,13,21,20;,
  4;13,14,22,21;,
  4;14,15,23,22;,
  4;15,16,24,23;,
  4;16,9,17,24;,
  4;17,18,26,25;,
  4;18,19,27,26;,
  4;19,20,28,27;,
  4;20,21,29,28;,
  4;21,22,30,29;,
  4;22,23,31,30;,
  4;23,24,32,31;,
  4;24,17,25,32;,
  4;25,26,34,33;,
  4;26,27,35,34;,
  4;27,28,36,35;,
  4;28,29,37,36;,
  4;29,30,38,37;,
  4;30,31,39,38;,
  4;31,32,40,39;,
  4;32,25,33,40;,
  4;33,34,42,41;,
  4;34,35,43,42;,
  4;35,36,44,43;,
  4;36,37,45,44;,
  4;37,38,46,45;,
  4;38,39,47,46;,
  4;39,40,48,47;,
  4;40,33,41,48;,
  4;41,42,50,49;,
  4;42,43,51,50;,
  4;43,44,52,51;,
  4;44,45,53,52;,
  4;45,46,54,53;,
  4;46,47,55,54;,
  4;47,48,56,55;,
  4;48,41,49,56;,
  3;49,50,57;,
  3;50,51,57;,
  3;51,52,57;,
  3;52,53,57;,
  3;53,54,57;,
  3;54,55,57;,
  3;55,56,57;,
  3;56,49,57;,
  3;58,60,59;,
  3;58,61,60;,
  3;58,62,61;,
  3;58,63,62;,
  3;58,64,63;,
  3;58,65,64;,
  3;58,66,65;,
  3;58,59,66;,
  4;59,60,68,67;,
  4;60,61,69,68;,
  4;61,62,70,69;,
  4;62,63,71,70;,
  4;63,64,72,71;,
  4;64,65,73,72;,
  4;65,66,74,73;,
  4;66,59,67,74;,
  4;67,68,76,75;,
  4;68,69,77,76;,
  4;69,70,78,77;,
  4;70,71,79,78;,
  4;71,72,80,79;,
  4;72,73,81,80;,
  4;73,74,82,81;,
  4;74,67,75,82;,
  4;75,76,84,83;,
  4;76,77,85,84;,
  4;77,78,86,85;,
  4;78,79,87,86;,
  4;79,80,88,87;,
  4;80,81,89,88;,
  4;81,82,90,89;,
  4;82,75,83,90;,
  4;116,117,92,91;,
  4;117,118,93,92;,
  4;118,119,94,93;,
  4;119,120,95,94;,
  4;120,121,96,95;,
  4;121,122,97,96;,
  4;122,123,98,97;,
  4;123,116,91,98;,
  4;91,92,100,99;,
  4;92,93,101,100;,
  4;93,94,102,101;,
  4;94,95,103,102;,
  4;95,96,104,103;,
  4;96,97,105,104;,
  4;97,98,106,105;,
  4;98,91,99,106;,
  4;99,100,108,107;,
  4;100,101,109,108;,
  4;101,102,110,109;,
  4;102,103,111,110;,
  4;103,104,112,111;,
  4;104,105,113,112;,
  4;105,106,114,113;,
  4;106,99,107,114;,
  3;107,108,115;,
  3;108,109,115;,
  3;109,110,115;,
  3;110,111,115;,
  3;111,112,115;,
  3;112,113,115;,
  3;113,114,115;,
  3;114,107,115;,
  3;124,126,125;,
  3;124,127,126;,
  3;124,128,127;,
  3;124,129,128;,
  3;124,130,129;,
  3;124,131,130;,
  3;124,132,131;,
  3;124,125,132;,
  4;125,126,134,133;,
  4;126,127,135,134;,
  4;127,128,136,135;,
  4;128,129,137,136;,
  4;129,130,138,137;,
  4;130,131,139,138;,
  4;131,132,140,139;,
  4;132,125,133,140;,
  4;133,134,142,141;,
  4;134,135,143,142;,
  4;135,136,144,143;,
  4;136,137,145,144;,
  4;137,138,146,145;,
  4;138,139,147,146;,
  4;139,140,148,147;,
  4;140,133,141,148;,
  4;141,142,150,149;,
  4;142,143,151,150;,
  4;143,144,152,151;,
  4;144,145,153,152;,
  4;145,146,154,153;,
  4;146,147,155,154;,
  4;147,148,156,155;,
  4;148,141,149,156;,
  4;149,150,158,157;,
  4;150,151,159,158;,
  4;151,152,160,159;,
  4;152,153,161,160;,
  4;153,154,162,161;,
  4;154,155,163,162;,
  4;155,156,164,163;,
  4;156,149,157,164;,
  4;157,158,166,165;,
  4;158,159,167,166;,
  4;159,160,168,167;,
  4;160,161,169,168;,
  4;161,162,170,169;,
  4;162,163,171,170;,
  4;163,164,172,171;,
  4;164,157,165,172;,
  4;165,166,174,173;,
  4;166,167,175,174;,
  4;167,168,176,175;,
  4;168,169,177,176;,
  4;169,170,178,177;,
  4;170,171,179,178;,
  4;171,172,180,179;,
  4;172,165,173,180;,
  3;173,174,181;,
  3;174,175,181;,
  3;175,176,181;,
  3;176,177,181;,
  3;177,178,181;,
  3;178,179,181;,
  3;179,180,181;,
  3;180,173,181;,
  3;182,184,183;,
  3;182,185,184;,
  3;182,186,185;,
  3;182,187,186;,
  3;182,188,187;,
  3;182,189,188;,
  3;182,190,189;,
  3;182,183,190;,
  4;183,184,192,191;,
  4;184,185,193,192;,
  4;185,186,194,193;,
  4;186,187,195,194;,
  4;187,188,196,195;,
  4;188,189,197,196;,
  4;189,190,198,197;,
  4;190,183,191,198;,
  4;191,192,200,199;,
  4;192,193,201,200;,
  4;193,194,202,201;,
  4;194,195,203,202;,
  4;195,196,204,203;,
  4;196,197,205,204;,
  4;197,198,206,205;,
  4;198,191,199,206;,
  4;199,200,208,207;,
  4;200,201,209,208;,
  4;201,202,210,209;,
  4;202,203,211,210;,
  4;203,204,212,211;,
  4;204,205,213,212;,
  4;205,206,214,213;,
  4;206,199,207,214;,
  4;207,208,216,215;,
  4;208,209,217,216;,
  4;209,210,218,217;,
  4;210,211,219,218;,
  4;211,212,220,219;,
  4;212,213,221,220;,
  4;213,214,222,221;,
  4;214,207,215,222;,
  4;215,216,224,223;,
  4;216,217,225,224;,
  4;217,218,226,225;,
  4;218,219,227,226;,
  4;219,220,228,227;,
  4;220,221,229,228;,
  4;221,222,230,229;,
  4;222,215,223,230;,
  4;223,224,232,231;,
  4;224,225,233,232;,
  4;225,226,234,233;,
  4;226,227,235,234;,
  4;227,228,236,235;,
  4;228,229,237,236;,
  4;229,230,238,237;,
  4;230,223,231,238;,
  3;231,232,239;,
  3;232,233,239;,
  3;233,234,239;,
  3;234,235,239;,
  3;235,236,239;,
  3;236,237,239;,
  3;237,238,239;,
  3;238,231,239;,
  3;240,242,241;,
  3;240,243,242;,
  3;240,244,243;,
  3;240,245,244;,
  3;240,246,245;,
  3;240,247,246;,
  3;240,248,247;,
  3;240,241,248;,
  4;241,242,250,249;,
  4;242,243,251,250;,
  4;243,244,252,251;,
  4;244,245,253,252;,
  4;245,246,254,253;,
  4;246,247,255,254;,
  4;247,248,256,255;,
  4;248,241,249,256;,
  4;249,250,258,257;,
  4;250,251,259,258;,
  4;251,252,260,259;,
  4;252,253,261,260;,
  4;253,254,262,261;,
  4;254,255,263,262;,
  4;255,256,264,263;,
  4;256,249,257,264;,
  4;257,258,266,265;,
  4;258,259,267,266;,
  4;259,260,268,267;,
  4;260,261,269,268;,
  4;261,262,270,269;,
  4;262,263,271,270;,
  4;263,264,272,271;,
  4;264,257,265,272;,
  4;265,266,274,273;,
  4;266,267,275,274;,
  4;267,268,276,275;,
  4;268,269,277,276;,
  4;269,270,278,277;,
  4;270,271,279,278;,
  4;271,272,280,279;,
  4;272,265,273,280;,
  4;273,274,282,281;,
  4;274,275,283,282;,
  4;275,276,284,283;,
  4;276,277,285,284;,
  4;277,278,286,285;,
  4;278,279,287,286;,
  4;279,280,288,287;,
  4;280,273,281,288;,
  4;281,282,290,289;,
  4;282,283,291,290;,
  4;283,284,292,291;,
  4;284,285,293,292;,
  4;285,286,294,293;,
  4;286,287,295,294;,
  4;287,288,296,295;,
  4;288,281,289,296;,
  3;289,290,297;,
  3;290,291,297;,
  3;291,292,297;,
  3;292,293,297;,
  3;293,294,297;,
  3;294,295,297;,
  3;295,296,297;,
  3;296,289,297;,
  3;298,300,299;,
  3;298,301,300;,
  3;298,302,301;,
  3;298,303,302;,
  3;298,304,303;,
  3;298,305,304;,
  3;298,306,305;,
  3;298,299,306;,
  4;299,300,308,307;,
  4;300,301,309,308;,
  4;301,302,310,309;,
  4;302,303,311,310;,
  4;303,304,312,311;,
  4;304,305,313,312;,
  4;305,306,314,313;,
  4;306,299,307,314;,
  4;307,308,316,315;,
  4;308,309,317,316;,
  4;309,310,318,317;,
  4;310,311,319,318;,
  4;311,312,320,319;,
  4;312,313,321,320;,
  4;313,314,322,321;,
  4;314,307,315,322;,
  4;315,316,324,323;,
  4;316,317,325,324;,
  4;317,318,326,356;,
  4;318,319,327,326;,
  4;319,320,328,327;,
  4;320,321,329,328;,
  4;321,322,330,357;,
  4;322,315,323,330;,
  4;323,324,332,331;,
  4;324,325,333,332;,
  4;356,326,334,358;,
  4;326,327,335,334;,
  4;327,328,336,335;,
  4;328,329,337,336;,
  4;357,330,338,359;,
  4;330,323,331,338;,
  4;331,332,340,339;,
  4;332,333,341,340;,
  4;333,334,342,341;,
  4;334,335,343,342;,
  4;335,336,344,343;,
  4;336,337,345,344;,
  4;337,338,346,345;,
  4;338,331,339,346;,
  4;339,340,348,347;,
  4;340,341,349,348;,
  4;341,342,350,349;,
  4;342,343,351,350;,
  4;343,344,352,351;,
  4;344,345,353,352;,
  4;345,346,354,353;,
  4;346,339,347,354;,
  3;347,348,355;,
  3;348,349,355;,
  3;349,350,355;,
  3;350,351,355;,
  3;351,352,355;,
  3;352,353,355;,
  3;353,354,355;,
  3;354,347,355;,
  3;360,362,361;,
  3;360,363,362;,
  3;360,364,363;,
  3;360,365,364;,
  3;360,366,365;,
  3;360,367,366;,
  3;360,368,367;,
  3;360,361,368;,
  4;361,362,370,369;,
  4;362,363,371,370;,
  4;363,364,372,371;,
  4;364,365,373,372;,
  4;365,366,374,373;,
  4;366,367,375,374;,
  4;367,368,376,375;,
  4;368,361,369,376;,
  4;369,370,378,377;,
  4;370,371,379,378;,
  4;371,372,380,379;,
  4;372,373,381,380;,
  4;373,374,382,381;,
  4;374,375,383,382;,
  4;375,376,384,383;,
  4;376,369,377,384;,
  4;377,378,386,385;,
  4;378,379,387,386;,
  4;379,380,388,387;,
  4;380,381,389,388;,
  4;381,382,390,389;,
  4;382,383,391,390;,
  4;383,384,392,391;,
  4;384,377,385,392;,
  4;385,386,394,393;,
  4;386,387,395,394;,
  4;387,388,396,395;,
  4;388,389,397,396;,
  4;389,390,398,397;,
  4;390,391,399,398;,
  4;391,392,400,399;,
  4;392,385,393,400;,
  4;393,394,402,401;,
  4;394,395,403,402;,
  4;395,396,404,403;,
  4;396,397,405,404;,
  4;397,398,406,405;,
  4;398,399,407,406;,
  4;399,400,408,407;,
  4;400,393,401,408;,
  4;401,402,410,409;,
  4;402,403,411,410;,
  4;403,404,412,411;,
  4;404,405,413,412;,
  4;405,406,414,413;,
  4;406,407,415,414;,
  4;407,408,416,415;,
  4;408,401,409,416;,
  3;409,410,417;,
  3;410,411,417;,
  3;411,412,417;,
  3;412,413,417;,
  3;413,414,417;,
  3;414,415,417;,
  3;415,416,417;,
  3;416,409,417;,
  3;418,420,419;,
  3;418,421,420;,
  3;418,422,421;,
  3;418,423,422;,
  3;418,424,423;,
  3;418,425,424;,
  3;418,426,425;,
  3;418,419,426;,
  4;419,420,428,427;,
  4;420,421,429,428;,
  4;421,422,430,429;,
  4;422,423,431,430;,
  4;423,424,432,431;,
  4;424,425,433,432;,
  4;425,426,434,433;,
  4;426,419,427,434;,
  4;427,428,436,435;,
  4;428,429,437,436;,
  4;429,430,438,437;,
  4;430,431,439,438;,
  4;431,432,440,439;,
  4;432,433,441,440;,
  4;433,434,442,441;,
  4;434,427,435,442;,
  4;435,436,444,443;,
  4;436,437,445,444;,
  4;437,438,446,445;,
  4;438,439,447,446;,
  4;439,440,448,447;,
  4;440,441,449,448;,
  4;441,442,450,449;,
  4;442,435,443,450;,
  4;443,444,452,451;,
  4;444,445,453,452;,
  4;445,446,454,453;,
  4;446,447,455,454;,
  4;447,448,456,455;,
  4;448,449,457,456;,
  4;449,450,458,457;,
  4;450,443,451,458;,
  4;451,452,460,459;,
  4;452,453,461,460;,
  4;453,454,462,461;,
  4;454,455,463,462;,
  4;455,456,464,463;,
  4;456,457,465,464;,
  4;457,458,466,465;,
  4;458,451,459,466;,
  4;459,460,468,467;,
  4;460,461,469,468;,
  4;461,462,470,469;,
  4;462,463,471,470;,
  4;463,464,472,471;,
  4;464,465,473,472;,
  4;465,466,474,473;,
  4;466,459,467,474;,
  3;467,468,475;,
  3;468,469,475;,
  3;469,470,475;,
  3;470,471,475;,
  3;471,472,475;,
  3;472,473,475;,
  3;473,474,475;,
  3;474,467,475;,
  3;476,478,477;,
  3;476,479,478;,
  3;476,480,479;,
  3;476,481,480;,
  3;476,482,481;,
  3;476,483,482;,
  3;476,484,483;,
  3;476,477,484;,
  4;477,478,486,485;,
  4;478,479,487,486;,
  4;479,480,488,487;,
  4;480,481,489,488;,
  4;481,482,490,489;,
  4;482,483,491,490;,
  4;483,484,492,491;,
  4;484,477,485,492;,
  4;485,486,494,493;,
  4;486,487,495,494;,
  4;487,488,496,495;,
  4;488,489,497,496;,
  4;489,490,498,497;,
  4;490,491,499,498;,
  4;491,492,500,499;,
  4;492,485,493,500;,
  4;493,494,502,501;,
  4;494,495,503,502;,
  4;495,496,504,503;,
  4;496,497,505,504;,
  4;497,498,506,505;,
  4;498,499,507,506;,
  4;499,500,508,507;,
  4;500,493,501,508;,
  4;501,502,510,509;,
  4;502,503,511,510;,
  4;503,504,512,511;,
  4;504,505,513,512;,
  4;505,506,514,513;,
  4;506,507,515,514;,
  4;507,508,516,515;,
  4;508,501,509,516;,
  4;509,510,518,517;,
  4;510,511,519,518;,
  4;511,512,520,519;,
  4;512,513,521,520;,
  4;513,514,522,521;,
  4;514,515,523,522;,
  4;515,516,524,523;,
  4;516,509,517,524;,
  4;517,518,526,525;,
  4;518,519,527,526;,
  4;519,520,528,527;,
  4;520,521,529,528;,
  4;521,522,530,529;,
  4;522,523,531,530;,
  4;523,524,532,531;,
  4;524,517,525,532;,
  3;525,526,533;,
  3;526,527,533;,
  3;527,528,533;,
  3;528,529,533;,
  3;529,530,533;,
  3;530,531,533;,
  3;531,532,533;,
  3;532,525,533;;
 }
 MeshTextureCoords {
  711;
  0.062500;0.000000;,
  0.125000;0.125000;,
  0.000000;0.125000;,
  0.187500;0.000000;,
  0.250000;0.125000;,
  0.312500;0.000000;,
  0.375000;0.125000;,
  0.437500;0.000000;,
  0.500000;0.125000;,
  0.562500;0.000000;,
  0.625000;0.125000;,
  0.687500;0.000000;,
  0.750000;0.125000;,
  0.812500;0.000000;,
  0.875000;0.125000;,
  0.937500;0.000000;,
  1.000000;0.125000;,
  0.125000;0.250000;,
  0.000000;0.250000;,
  0.250000;0.250000;,
  0.375000;0.250000;,
  0.500000;0.250000;,
  0.625000;0.250000;,
  0.750000;0.250000;,
  0.875000;0.250000;,
  1.000000;0.250000;,
  0.125000;0.375000;,
  0.000000;0.375000;,
  0.250000;0.375000;,
  0.375000;0.375000;,
  0.500000;0.375000;,
  0.625000;0.375000;,
  0.750000;0.375000;,
  0.875000;0.375000;,
  1.000000;0.375000;,
  0.125000;0.500000;,
  0.000000;0.500000;,
  0.250000;0.500000;,
  0.375000;0.500000;,
  0.500000;0.500000;,
  0.625000;0.500000;,
  0.750000;0.500000;,
  0.875000;0.500000;,
  1.000000;0.500000;,
  0.125000;0.625000;,
  0.000000;0.625000;,
  0.250000;0.625000;,
  0.375000;0.625000;,
  0.500000;0.625000;,
  0.625000;0.625000;,
  0.750000;0.625000;,
  0.875000;0.625000;,
  1.000000;0.625000;,
  0.125000;0.750000;,
  0.000000;0.750000;,
  0.250000;0.750000;,
  0.375000;0.750000;,
  0.500000;0.750000;,
  0.625000;0.750000;,
  0.750000;0.750000;,
  0.875000;0.750000;,
  1.000000;0.750000;,
  0.125000;0.875000;,
  0.000000;0.875000;,
  0.250000;0.875000;,
  0.375000;0.875000;,
  0.500000;0.875000;,
  0.625000;0.875000;,
  0.750000;0.875000;,
  0.875000;0.875000;,
  1.000000;0.875000;,
  0.062500;1.000000;,
  0.187500;1.000000;,
  0.312500;1.000000;,
  0.437500;1.000000;,
  0.562500;1.000000;,
  0.687500;1.000000;,
  0.812500;1.000000;,
  0.937500;1.000000;,
  0.062500;0.000000;,
  0.125000;0.125000;,
  0.000000;0.125000;,
  0.187500;0.000000;,
  0.250000;0.125000;,
  0.312500;0.000000;,
  0.375000;0.125000;,
  0.437500;0.000000;,
  0.500000;0.125000;,
  0.562500;0.000000;,
  0.625000;0.125000;,
  0.687500;0.000000;,
  0.750000;0.125000;,
  0.812500;0.000000;,
  0.875000;0.125000;,
  0.937500;0.000000;,
  1.000000;0.125000;,
  0.125000;0.250000;,
  0.000000;0.250000;,
  0.250000;0.250000;,
  0.375000;0.250000;,
  0.500000;0.250000;,
  0.625000;0.250000;,
  0.750000;0.250000;,
  0.875000;0.250000;,
  1.000000;0.250000;,
  0.125000;0.375000;,
  0.000000;0.375000;,
  0.250000;0.375000;,
  0.375000;0.375000;,
  0.500000;0.375000;,
  0.625000;0.375000;,
  0.750000;0.375000;,
  0.875000;0.375000;,
  1.000000;0.375000;,
  0.125000;0.500000;,
  0.000000;0.500000;,
  0.250000;0.500000;,
  0.375000;0.500000;,
  0.500000;0.500000;,
  0.625000;0.500000;,
  0.750000;0.500000;,
  0.875000;0.500000;,
  1.000000;0.500000;,
  0.125000;0.625000;,
  0.000000;0.625000;,
  0.250000;0.625000;,
  0.375000;0.625000;,
  0.500000;0.625000;,
  0.625000;0.625000;,
  0.750000;0.625000;,
  0.875000;0.625000;,
  1.000000;0.625000;,
  0.125000;0.750000;,
  0.000000;0.750000;,
  0.250000;0.750000;,
  0.375000;0.750000;,
  0.500000;0.750000;,
  0.625000;0.750000;,
  0.750000;0.750000;,
  0.875000;0.750000;,
  1.000000;0.750000;,
  0.125000;0.875000;,
  0.000000;0.875000;,
  0.250000;0.875000;,
  0.375000;0.875000;,
  0.500000;0.875000;,
  0.625000;0.875000;,
  0.750000;0.875000;,
  0.875000;0.875000;,
  1.000000;0.875000;,
  0.062500;1.000000;,
  0.187500;1.000000;,
  0.312500;1.000000;,
  0.437500;1.000000;,
  0.562500;1.000000;,
  0.687500;1.000000;,
  0.812500;1.000000;,
  0.937500;1.000000;,
  0.062500;0.000000;,
  0.125000;0.125000;,
  0.000000;0.125000;,
  0.187500;0.000000;,
  0.250000;0.125000;,
  0.312500;0.000000;,
  0.375000;0.125000;,
  0.437500;0.000000;,
  0.500000;0.125000;,
  0.562500;0.000000;,
  0.625000;0.125000;,
  0.687500;0.000000;,
  0.750000;0.125000;,
  0.812500;0.000000;,
  0.875000;0.125000;,
  0.937500;0.000000;,
  1.000000;0.125000;,
  0.125000;0.250000;,
  0.000000;0.250000;,
  0.250000;0.250000;,
  0.375000;0.250000;,
  0.500000;0.250000;,
  0.625000;0.250000;,
  0.750000;0.250000;,
  0.875000;0.250000;,
  1.000000;0.250000;,
  0.125000;0.375000;,
  0.000000;0.375000;,
  0.250000;0.375000;,
  0.375000;0.375000;,
  0.500000;0.375000;,
  0.625000;0.375000;,
  0.750000;0.375000;,
  0.875000;0.375000;,
  1.000000;0.375000;,
  0.125000;0.500000;,
  0.000000;0.500000;,
  0.250000;0.500000;,
  0.375000;0.500000;,
  0.500000;0.500000;,
  0.625000;0.500000;,
  0.750000;0.500000;,
  0.875000;0.500000;,
  1.000000;0.500000;,
  0.125000;0.625000;,
  0.000000;0.625000;,
  0.250000;0.625000;,
  0.375000;0.625000;,
  0.500000;0.625000;,
  0.625000;0.625000;,
  0.750000;0.625000;,
  0.875000;0.625000;,
  1.000000;0.625000;,
  0.125000;0.750000;,
  0.000000;0.750000;,
  0.250000;0.750000;,
  0.375000;0.750000;,
  0.500000;0.750000;,
  0.625000;0.750000;,
  0.750000;0.750000;,
  0.875000;0.750000;,
  1.000000;0.750000;,
  0.125000;0.875000;,
  0.000000;0.875000;,
  0.250000;0.875000;,
  0.375000;0.875000;,
  0.500000;0.875000;,
  0.625000;0.875000;,
  0.750000;0.875000;,
  0.875000;0.875000;,
  1.000000;0.875000;,
  0.062500;1.000000;,
  0.187500;1.000000;,
  0.312500;1.000000;,
  0.437500;1.000000;,
  0.562500;1.000000;,
  0.687500;1.000000;,
  0.812500;1.000000;,
  0.937500;1.000000;,
  0.062500;0.000000;,
  0.125000;0.125000;,
  0.000000;0.125000;,
  0.187500;0.000000;,
  0.250000;0.125000;,
  0.312500;0.000000;,
  0.375000;0.125000;,
  0.437500;0.000000;,
  0.500000;0.125000;,
  0.562500;0.000000;,
  0.625000;0.125000;,
  0.687500;0.000000;,
  0.750000;0.125000;,
  0.812500;0.000000;,
  0.875000;0.125000;,
  0.937500;0.000000;,
  1.000000;0.125000;,
  0.125000;0.250000;,
  0.000000;0.250000;,
  0.250000;0.250000;,
  0.375000;0.250000;,
  0.500000;0.250000;,
  0.625000;0.250000;,
  0.750000;0.250000;,
  0.875000;0.250000;,
  1.000000;0.250000;,
  0.125000;0.375000;,
  0.000000;0.375000;,
  0.250000;0.375000;,
  0.375000;0.375000;,
  0.500000;0.375000;,
  0.625000;0.375000;,
  0.750000;0.375000;,
  0.875000;0.375000;,
  1.000000;0.375000;,
  0.125000;0.500000;,
  0.000000;0.500000;,
  0.250000;0.500000;,
  0.375000;0.500000;,
  0.500000;0.500000;,
  0.625000;0.500000;,
  0.750000;0.500000;,
  0.875000;0.500000;,
  1.000000;0.500000;,
  0.125000;0.625000;,
  0.000000;0.625000;,
  0.250000;0.625000;,
  0.375000;0.625000;,
  0.500000;0.625000;,
  0.625000;0.625000;,
  0.750000;0.625000;,
  0.875000;0.625000;,
  1.000000;0.625000;,
  0.125000;0.750000;,
  0.000000;0.750000;,
  0.250000;0.750000;,
  0.375000;0.750000;,
  0.500000;0.750000;,
  0.625000;0.750000;,
  0.750000;0.750000;,
  0.875000;0.750000;,
  1.000000;0.750000;,
  0.125000;0.875000;,
  0.000000;0.875000;,
  0.250000;0.875000;,
  0.375000;0.875000;,
  0.500000;0.875000;,
  0.625000;0.875000;,
  0.750000;0.875000;,
  0.875000;0.875000;,
  1.000000;0.875000;,
  0.062500;1.000000;,
  0.187500;1.000000;,
  0.312500;1.000000;,
  0.437500;1.000000;,
  0.562500;1.000000;,
  0.687500;1.000000;,
  0.812500;1.000000;,
  0.937500;1.000000;,
  0.062500;0.000000;,
  0.125000;0.125000;,
  0.000000;0.125000;,
  0.187500;0.000000;,
  0.250000;0.125000;,
  0.312500;0.000000;,
  0.375000;0.125000;,
  0.437500;0.000000;,
  0.500000;0.125000;,
  0.562500;0.000000;,
  0.625000;0.125000;,
  0.687500;0.000000;,
  0.750000;0.125000;,
  0.812500;0.000000;,
  0.875000;0.125000;,
  0.937500;0.000000;,
  1.000000;0.125000;,
  0.125000;0.250000;,
  0.000000;0.250000;,
  0.250000;0.250000;,
  0.375000;0.250000;,
  0.500000;0.250000;,
  0.625000;0.250000;,
  0.750000;0.250000;,
  0.875000;0.250000;,
  1.000000;0.250000;,
  0.125000;0.375000;,
  0.000000;0.375000;,
  0.250000;0.375000;,
  0.375000;0.375000;,
  0.500000;0.375000;,
  0.625000;0.375000;,
  0.750000;0.375000;,
  0.875000;0.375000;,
  1.000000;0.375000;,
  0.125000;0.500000;,
  0.000000;0.500000;,
  0.250000;0.500000;,
  0.375000;0.500000;,
  0.500000;0.500000;,
  0.625000;0.500000;,
  0.750000;0.500000;,
  0.875000;0.500000;,
  1.000000;0.500000;,
  0.125000;0.625000;,
  0.000000;0.625000;,
  0.250000;0.625000;,
  0.375000;0.625000;,
  0.500000;0.625000;,
  0.625000;0.625000;,
  0.750000;0.625000;,
  0.875000;0.625000;,
  1.000000;0.625000;,
  0.125000;0.750000;,
  0.000000;0.750000;,
  0.250000;0.750000;,
  0.375000;0.750000;,
  0.500000;0.750000;,
  0.625000;0.750000;,
  0.750000;0.750000;,
  0.875000;0.750000;,
  1.000000;0.750000;,
  0.125000;0.875000;,
  0.000000;0.875000;,
  0.250000;0.875000;,
  0.375000;0.875000;,
  0.500000;0.875000;,
  0.625000;0.875000;,
  0.750000;0.875000;,
  0.875000;0.875000;,
  1.000000;0.875000;,
  0.062500;1.000000;,
  0.187500;1.000000;,
  0.312500;1.000000;,
  0.437500;1.000000;,
  0.562500;1.000000;,
  0.687500;1.000000;,
  0.812500;1.000000;,
  0.937500;1.000000;,
  0.062500;0.000000;,
  0.125000;0.125000;,
  0.000000;0.125000;,
  0.187500;0.000000;,
  0.250000;0.125000;,
  0.312500;0.000000;,
  0.375000;0.125000;,
  0.437500;0.000000;,
  0.500000;0.125000;,
  0.562500;0.000000;,
  0.625000;0.125000;,
  0.687500;0.000000;,
  0.750000;0.125000;,
  0.812500;0.000000;,
  0.875000;0.125000;,
  0.937500;0.000000;,
  1.000000;0.125000;,
  0.125000;0.250000;,
  0.000000;0.250000;,
  0.250000;0.250000;,
  0.375000;0.250000;,
  0.500000;0.250000;,
  0.625000;0.250000;,
  0.750000;0.250000;,
  0.875000;0.250000;,
  1.000000;0.250000;,
  0.125000;0.375000;,
  0.000000;0.375000;,
  0.250000;0.375000;,
  0.375000;0.375000;,
  0.500000;0.375000;,
  0.625000;0.375000;,
  0.750000;0.375000;,
  0.875000;0.375000;,
  1.000000;0.375000;,
  0.125000;0.500000;,
  0.000000;0.500000;,
  0.250000;0.500000;,
  0.375000;0.500000;,
  0.500000;0.500000;,
  0.625000;0.500000;,
  0.750000;0.500000;,
  0.875000;0.500000;,
  1.000000;0.500000;,
  0.125000;0.625000;,
  0.000000;0.625000;,
  0.250000;0.625000;,
  0.375000;0.625000;,
  0.500000;0.625000;,
  0.625000;0.625000;,
  0.750000;0.625000;,
  0.875000;0.625000;,
  1.000000;0.625000;,
  0.125000;0.750000;,
  0.000000;0.750000;,
  0.250000;0.750000;,
  0.375000;0.750000;,
  0.500000;0.750000;,
  0.625000;0.750000;,
  0.750000;0.750000;,
  0.875000;0.750000;,
  1.000000;0.750000;,
  0.125000;0.875000;,
  0.000000;0.875000;,
  0.250000;0.875000;,
  0.375000;0.875000;,
  0.500000;0.875000;,
  0.625000;0.875000;,
  0.750000;0.875000;,
  0.875000;0.875000;,
  1.000000;0.875000;,
  0.062500;1.000000;,
  0.187500;1.000000;,
  0.312500;1.000000;,
  0.437500;1.000000;,
  0.562500;1.000000;,
  0.687500;1.000000;,
  0.812500;1.000000;,
  0.937500;1.000000;,
  0.062500;0.000000;,
  0.125000;0.125000;,
  0.000000;0.125000;,
  0.187500;0.000000;,
  0.250000;0.125000;,
  0.312500;0.000000;,
  0.375000;0.125000;,
  0.437500;0.000000;,
  0.500000;0.125000;,
  0.562500;0.000000;,
  0.625000;0.125000;,
  0.687500;0.000000;,
  0.750000;0.125000;,
  0.812500;0.000000;,
  0.875000;0.125000;,
  0.937500;0.000000;,
  1.000000;0.125000;,
  0.125000;0.250000;,
  0.000000;0.250000;,
  0.250000;0.250000;,
  0.375000;0.250000;,
  0.500000;0.250000;,
  0.625000;0.250000;,
  0.750000;0.250000;,
  0.875000;0.250000;,
  1.000000;0.250000;,
  0.125000;0.375000;,
  0.000000;0.375000;,
  0.250000;0.375000;,
  0.375000;0.375000;,
  0.500000;0.375000;,
  0.625000;0.375000;,
  0.750000;0.375000;,
  0.875000;0.375000;,
  1.000000;0.375000;,
  0.125000;0.500000;,
  0.000000;0.500000;,
  0.250000;0.500000;,
  0.375000;0.500000;,
  0.500000;0.500000;,
  0.625000;0.500000;,
  0.750000;0.500000;,
  0.875000;0.500000;,
  1.000000;0.500000;,
  0.125000;0.625000;,
  0.000000;0.625000;,
  0.250000;0.625000;,
  0.375000;0.625000;,
  0.500000;0.625000;,
  0.625000;0.625000;,
  0.750000;0.625000;,
  0.875000;0.625000;,
  1.000000;0.625000;,
  0.125000;0.750000;,
  0.000000;0.750000;,
  0.250000;0.750000;,
  0.375000;0.750000;,
  0.500000;0.750000;,
  0.625000;0.750000;,
  0.750000;0.750000;,
  0.875000;0.750000;,
  1.000000;0.750000;,
  0.125000;0.875000;,
  0.000000;0.875000;,
  0.250000;0.875000;,
  0.375000;0.875000;,
  0.500000;0.875000;,
  0.625000;0.875000;,
  0.750000;0.875000;,
  0.875000;0.875000;,
  1.000000;0.875000;,
  0.062500;1.000000;,
  0.187500;1.000000;,
  0.312500;1.000000;,
  0.437500;1.000000;,
  0.562500;1.000000;,
  0.687500;1.000000;,
  0.812500;1.000000;,
  0.937500;1.000000;,
  0.062500;0.000000;,
  0.125000;0.125000;,
  0.000000;0.125000;,
  0.187500;0.000000;,
  0.250000;0.125000;,
  0.312500;0.000000;,
  0.375000;0.125000;,
  0.437500;0.000000;,
  0.500000;0.125000;,
  0.562500;0.000000;,
  0.625000;0.125000;,
  0.687500;0.000000;,
  0.750000;0.125000;,
  0.812500;0.000000;,
  0.875000;0.125000;,
  0.937500;0.000000;,
  1.000000;0.125000;,
  0.125000;0.250000;,
  0.000000;0.250000;,
  0.250000;0.250000;,
  0.375000;0.250000;,
  0.500000;0.250000;,
  0.625000;0.250000;,
  0.750000;0.250000;,
  0.875000;0.250000;,
  1.000000;0.250000;,
  0.125000;0.375000;,
  0.000000;0.375000;,
  0.250000;0.375000;,
  0.375000;0.375000;,
  0.500000;0.375000;,
  0.625000;0.375000;,
  0.750000;0.375000;,
  0.875000;0.375000;,
  1.000000;0.375000;,
  0.125000;0.500000;,
  0.000000;0.500000;,
  0.250000;0.500000;,
  0.375000;0.500000;,
  0.500000;0.500000;,
  0.625000;0.500000;,
  0.750000;0.500000;,
  0.875000;0.500000;,
  1.000000;0.500000;,
  0.125000;0.625000;,
  0.000000;0.625000;,
  0.250000;0.625000;,
  0.375000;0.625000;,
  0.500000;0.625000;,
  0.625000;0.625000;,
  0.750000;0.625000;,
  0.875000;0.625000;,
  1.000000;0.625000;,
  0.125000;0.750000;,
  0.000000;0.750000;,
  0.250000;0.750000;,
  0.375000;0.750000;,
  0.500000;0.750000;,
  0.625000;0.750000;,
  0.750000;0.750000;,
  0.875000;0.750000;,
  1.000000;0.750000;,
  0.125000;0.875000;,
  0.000000;0.875000;,
  0.250000;0.875000;,
  0.375000;0.875000;,
  0.500000;0.875000;,
  0.625000;0.875000;,
  0.750000;0.875000;,
  0.875000;0.875000;,
  1.000000;0.875000;,
  0.062500;1.000000;,
  0.187500;1.000000;,
  0.312500;1.000000;,
  0.437500;1.000000;,
  0.562500;1.000000;,
  0.687500;1.000000;,
  0.812500;1.000000;,
  0.937500;1.000000;,
  0.062500;0.000000;,
  0.125000;0.125000;,
  0.000000;0.125000;,
  0.187500;0.000000;,
  0.250000;0.125000;,
  0.312500;0.000000;,
  0.375000;0.125000;,
  0.437500;0.000000;,
  0.500000;0.125000;,
  0.562500;0.000000;,
  0.625000;0.125000;,
  0.687500;0.000000;,
  0.750000;0.125000;,
  0.812500;0.000000;,
  0.875000;0.125000;,
  0.937500;0.000000;,
  1.000000;0.125000;,
  0.125000;0.250000;,
  0.000000;0.250000;,
  0.250000;0.250000;,
  0.375000;0.250000;,
  0.500000;0.250000;,
  0.625000;0.250000;,
  0.750000;0.250000;,
  0.875000;0.250000;,
  1.000000;0.250000;,
  0.125000;0.375000;,
  0.000000;0.375000;,
  0.250000;0.375000;,
  0.375000;0.375000;,
  0.500000;0.375000;,
  0.625000;0.375000;,
  0.750000;0.375000;,
  0.875000;0.375000;,
  1.000000;0.375000;,
  0.125000;0.500000;,
  0.000000;0.500000;,
  0.250000;0.500000;,
  0.375000;0.500000;,
  0.500000;0.500000;,
  0.625000;0.500000;,
  0.750000;0.500000;,
  0.875000;0.500000;,
  1.000000;0.500000;,
  0.125000;0.625000;,
  0.000000;0.625000;,
  0.250000;0.625000;,
  0.375000;0.625000;,
  0.500000;0.625000;,
  0.625000;0.625000;,
  0.750000;0.625000;,
  0.875000;0.625000;,
  1.000000;0.625000;,
  0.125000;0.750000;,
  0.000000;0.750000;,
  0.250000;0.750000;,
  0.375000;0.750000;,
  0.500000;0.750000;,
  0.625000;0.750000;,
  0.750000;0.750000;,
  0.875000;0.750000;,
  1.000000;0.750000;,
  0.125000;0.875000;,
  0.000000;0.875000;,
  0.250000;0.875000;,
  0.375000;0.875000;,
  0.500000;0.875000;,
  0.625000;0.875000;,
  0.750000;0.875000;,
  0.875000;0.875000;,
  1.000000;0.875000;,
  0.062500;1.000000;,
  0.187500;1.000000;,
  0.312500;1.000000;,
  0.437500;1.000000;,
  0.562500;1.000000;,
  0.687500;1.000000;,
  0.812500;1.000000;,
  0.937500;1.000000;;
 }
}
